Tests/test.vcd
$comment Generated by nMigen $end
$date 2020-06-24 18:07:31.533867 $end
$timescale 100 ps $end
$scope module top $end
$var wire 18 " rx_symbol $end
$var wire 2 # rx_valid $end
$var wire 18 % tx_symbol $end
$var wire 1 ' tx_clk $end
$var wire 1 ( tx_rst $end
$var wire 1 * ts__valid $end
$var wire 1 , ts__link__valid $end
$var wire 1 - ts__lane__valid $end
$var wire 8 / ts__n_fts $end
$var wire 1 2 ts__rate__gen1 $end
$scope module aligner $end
$var wire 18 ! rx_symbol $end
$var wire 2 $ rx_valid $end
$var wire 1 4 en $end
$var wire 20 5 i $end
$var wire 18 8 rx_symbol$1 $end
$var wire 2 9 rx_valid$1 $end
$var wire 1 : rx_align $end
$var wire 20 ; o $end
$scope module U$0 $end
$var wire 1 3 en $end
$var wire 20 6 i $end
$var wire 20 < o $end
$var wire 1 > rx_clk $end
$var wire 1 @ rx_rst $end
$var wire 40 C symbol_buffer $end
$var wire 1 D offset $end
$upscope $end
$upscope $end
$scope module rx $end
$var wire 18 7 rx_symbol $end
$var wire 1 = rx_clk $end
$var wire 1 B rx_rst $end
$var wire 1 E ts_received $end
$var wire 1 F ts_current__link__valid $end
$var string 1 G fsm_state $end
$var wire 1 H recv_tsn $end
$var wire 8 I ts_current__link__number $end
$var wire 1 J ts_current__valid $end
$var wire 1 K start_receive_ts $end
$var wire 8 L ts_current__n_fts $end
$var wire 1 M ts_current__lane__valid $end
$var wire 5 N ts_current__lane__number $end
$var wire 1 O ts_current__rate__reserved0 $end
$var wire 1 P ts_current__rate__gen1 $end
$var wire 1 Q ts_current__rate__gen2 $end
$var wire 3 R ts_current__rate__reserved1 $end
$var wire 1 S ts_current__rate__autonomous_change $end
$var wire 1 T ts_current__rate__speed_change $end
$var wire 1 U ts_current__ctrl__hot_reset $end
$var wire 1 V ts_current__ctrl__disable_link $end
$var wire 1 W ts_current__ctrl__loopback $end
$var wire 1 X ts_current__ctrl__disable_scrambling $end
$var wire 1 Y ts_current__ctrl__compliance_receive $end
$var wire 1 Z ts_current__ts_id $end
$var wire 1 [ inverted $end
$var wire 1 \ ts__valid $end
$var wire 1 ] ts__link__valid $end
$var wire 8 ^ ts__link__number $end
$var wire 1 _ ts__lane__valid $end
$var wire 5 ` ts__lane__number $end
$var wire 8 a ts__n_fts $end
$var wire 1 b ts__rate__reserved0 $end
$var wire 1 c ts__rate__gen1 $end
$var wire 1 d ts__rate__gen2 $end
$var wire 3 e ts__rate__reserved1 $end
$var wire 1 f ts__rate__autonomous_change $end
$var wire 1 g ts__rate__speed_change $end
$var wire 1 h ts__ctrl__hot_reset $end
$var wire 1 i ts__ctrl__disable_link $end
$var wire 1 j ts__ctrl__loopback $end
$var wire 1 k ts__ctrl__disable_scrambling $end
$var wire 1 l ts__ctrl__compliance_receive $end
$var wire 1 m ts__ts_id $end
$var wire 1 n ts_last__valid $end
$var wire 1 o ts_last__link__valid $end
$var wire 8 p ts_last__link__number $end
$var wire 1 q ts_last__lane__valid $end
$var wire 5 r ts_last__lane__number $end
$var wire 8 s ts_last__n_fts $end
$var wire 1 t ts_last__rate__reserved0 $end
$var wire 1 u ts_last__rate__gen1 $end
$var wire 1 v ts_last__rate__gen2 $end
$var wire 3 w ts_last__rate__reserved1 $end
$var wire 1 x ts_last__rate__autonomous_change $end
$var wire 1 y ts_last__rate__speed_change $end
$var wire 1 z ts_last__ctrl__hot_reset $end
$var wire 1 { ts_last__ctrl__disable_link $end
$var wire 1 | ts_last__ctrl__loopback $end
$var wire 1 } ts_last__ctrl__disable_scrambling $end
$var wire 1 ~ ts_last__ctrl__compliance_receive $end
$var wire 1 !! ts_last__ts_id $end
$var wire 8 "! vlink $end
$var wire 5 #! vlane $end
$upscope $end
$scope module tx $end
$var wire 18 & tx_symbol $end
$var wire 1 ) ts__valid $end
$var wire 1 + ts__link__valid $end
$var wire 1 . ts__lane__valid $end
$var wire 8 0 ts__n_fts $end
$var wire 1 1 ts__rate__gen1 $end
$var wire 1 ? rx_clk $end
$var wire 1 A rx_rst $end
$var wire 2 $! tx_e_idle $end
$var string 1 %! fsm_state $end
$var wire 2 &! tx_set_disp $end
$var wire 2 '! tx_disp $end
$var wire 1 (! start_send_ts $end
$var wire 1 )! idle $end
$var wire 8 *! ts__link__number $end
$var wire 1 +! $signal $end
$var wire 2 ,! eidle $end
$var wire 5 -! ts__lane__number $end
$var wire 1 .! $signal$1 $end
$var wire 1 /! $signal$2 $end
$var wire 1 0! ts__rate__reserved0 $end
$var wire 1 1! ts__rate__gen2 $end
$var wire 3 2! ts__rate__reserved1 $end
$var wire 1 3! ts__rate__autonomous_change $end
$var wire 1 4! ts__rate__speed_change $end
$var wire 1 5! $signal$3 $end
$var wire 1 6! ts__ctrl__hot_reset $end
$var wire 1 7! ts__ctrl__disable_link $end
$var wire 1 8! ts__ctrl__loopback $end
$var wire 1 9! ts__ctrl__disable_scrambling $end
$var wire 1 :! ts__ctrl__compliance_receive $end
$var wire 4 ;! $signal$4 $end
$var wire 1 <! ts__ts_id $end
$upscope $end
$upscope $end
$enddefinitions $end
#0
$dumpvars
b0 !
b0 "
b11 #
b11 $
b0 %
b0 &
0'
0(
0)
0*
0+
0,
0-
0.
b0 /
b0 0
01
02
03
04
b10000000001000000000 5
b10000000001000000000 6
b0 7
b0 8
b0 9
0:
b0 ;
b0 <
0=
0>
0?
0@
0A
0B
b0 C
0D
0E
0F
sCOMMA/0 G
0H
b0 I
0J
0K
b0 L
0M
b0 N
0O
0P
0Q
b0 R
0S
0T
0U
0V
0W
0X
0Y
0Z
0[
0\
0]
b0 ^
0_
b0 `
b0 a
0b
0c
0d
b0 e
0f
0g
0h
0i
0j
0k
0l
0m
0n
0o
b0 p
0q
b0 r
b0 s
0t
0u
0v
b0 w
0x
0y
0z
0{
0|
0}
0~
0!!
b0 "!
b0 #!
b0 $!
sIDLE/0 %!
b0 &!
b0 '!
0(!
0)!
b0 *!
0+!
b0 ,!
b0 -!
0.!
0/!
00!
01!
b0 2!
03!
04!
05!
06!
07!
08!
09!
0:!
b0 ;!
0<!
$end
#40
1>
1?
1=
1+
1,
1:!
b11 2!
16!
10!
14!
11!
b10111100 0
b10111100 /
b10011110 *!
1*
1)
b1000000000100000000000000000000000000000 C
#80
0>
0?
0=
#120
1>
1?
1=
1(!
b1 &!
b10011110110111100 &
b10011110110111100 %
sTSn-LANE-FTS/1 %!
b1000000000100000000010000000001000000000 C
b10011110110111100 !
b10011110110111100 "
b10100111101110111100 6
b10100111101110111100 5
#160
0>
0?
0=
#200
1>
1?
1=
0(!
b0 &!
b10000000001000000000 <
b10000000001000000000 ;
b10111100111110111 &
b10111100111110111 %
sTSn-DATA/2 %!
b1010011110111011110010000000001000000000 C
b11 9
b10111100111110111 !
b10111100111110111 "
b10101111001111110111 6
b10101111001111110111 5
#240
0>
0?
0=
#280
1>
1?
1=
b1010111100111111011110100111101110111100 C
sTSn-ID0/3 %!
b10001010011101 &
b10001010011101 %
b10001010011101 !
b10001010011101 "
b10000100011010011101 6
b10000100011010011101 5
#320
0>
0?
0=
#360
1>
1?
1=
b1000010001101001110110101111001111110111 C
sTSn-ID1/4 %!
b10100111101110111100 <
b10100111101110111100 ;
b1001010001001010 &
b1001010001001010 %
b10011110110111100 7
b10011110110111100 8
b1001010001001010 !
b1001010001001010 "
b10010010101001001010 6
b10010010101001001010 5
#400
0>
0?
0=
#440
1>
1?
1=
sTSn-LANE-FTS/1 G
b1001001010100100101010000100011010011101 C
b10101111001111110111 <
b10101111001111110111 ;
1H
sTSn-ID2/5 %!
b10011110 I
1F
b10111100111110111 7
b10111100111110111 8
#480
0>
0?
0=
#520
1>
1?
1=
1J
sTSn-DATA/3 G
b10000100011010011101 <
b10000100011010011101 ;
1K
sTSn-ID3/6 %!
b10111100 L
b1001001010100100101010010010101001001010 C
b10001010011101 7
b10001010011101 8
#560
0>
0?
0=
#600
1>
1?
1=
1Y
sTSn-ID0/4 G
1T
b10010010101001001010 <
b10010010101001001010 ;
1Q
0K
sTSn-ID4/7 %!
1U
b11 R
1O
b1001010001001010 7
b1001010001001010 8
#640
0>
0?
0=
#680
1>
1?
1=
sTSn-ID1/5 G
sIDLE/0 %!
#720
0>
0?
0=
#760
1>
1?
1=
1(!
sTSn-ID2/6 G
b1 &!
sTSn-LANE-FTS/1 %!
b10011110110111100 &
b10011110110111100 %
b10011110110111100 !
b10011110110111100 "
b10100111101110111100 6
b10100111101110111100 5
#800
0>
0?
0=
#840
1>
1?
1=
0(!
sTSn-ID3/7 G
b0 &!
b10111100111110111 &
b10111100111110111 %
sTSn-DATA/2 %!
b1010011110111011110010010010101001001010 C
b10111100111110111 !
b10111100111110111 "
b10101111001111110111 6
b10101111001111110111 5
#879
0>
0?
0=
#919
1>
1?
1=
sTSn-ID4/8 G
b1010111100111111011110100111101110111100 C
sTSn-ID0/3 %!
b10001010011101 &
b10001010011101 %
b10001010011101 !
b10001010011101 "
b10000100011010011101 6
b10000100011010011101 5
#959
0>
0?
0=
#999
1>
1?
1=
1o
b10011110 p
1d
b11 e
1~
b10100111101110111100 <
b10100111101110111100 ;
b10111100 s
1g
1t
1h
1\
1E
1]
1v
b10011110 ^
b11 w
b1001010001001010 &
b1001010001001010 %
b1000010001101001110110101111001111110111 C
1l
sCOMMA/0 G
1y
b10111100 a
1z
sTSn-ID1/4 %!
1n
1b
b10011110110111100 7
b10011110110111100 8
b1001010001001010 !
b1001010001001010 "
b10010010101001001010 6
b10010010101001001010 5
#1039
0>
0?
0=
#1079
1>
1?
1=
0E
sTSn-LANE-FTS/1 G
b10101111001111110111 <
b10101111001111110111 ;
b10011110 "!
sTSn-ID2/5 %!
b1001001010100100101010000100011010011101 C
b10111100111110111 7
b10111100111110111 8
#1119
0>
0?
0=
#1159
1>
1?
1=
sTSn-DATA/3 G
b10000100011010011101 <
b10000100011010011101 ;
1K
sTSn-ID3/6 %!
b1001001010100100101010010010101001001010 C
b10001010011101 7
b10001010011101 8
#1199
0>
0?
0=
#1239
1>
1?
1=
sTSn-ID0/4 G
sTSn-ID4/7 %!
0K
b10010010101001001010 <
b10010010101001001010 ;
b1001010001001010 7
b1001010001001010 8
#1279
0>
0?
0=
#1320
1>
1?
1=
0:!
b10 2!
sTSn-ID1/5 G
06!
04!
01!
b11010011 0
b11010011 /
sIDLE/0 %!
b11101110 *!
13!
#1360
0>
0?
0=
#1400
1>
1?
1=
1(!
sTSn-ID2/6 G
b1 &!
sTSn-LANE-FTS/1 %!
b11101110110111100 &
b11101110110111100 %
b11101110110111100 !
b11101110110111100 "
b10111011101110111100 6
b10111011101110111100 5
#1440
0>
0?
0=
#1480
1>
1?
1=
0(!
sTSn-ID3/7 G
b0 &!
b11010011111110111 &
b11010011111110111 %
sTSn-DATA/2 %!
b1011101110111011110010010010101001001010 C
b11010011111110111 !
b11010011111110111 "
b10110100111111110111 6
b10110100111111110111 5
#1520
0>
0?
0=
#1560
1>
1?
1=
sTSn-ID4/8 G
b1011010011111111011110111011101110111100 C
sTSn-ID0/3 %!
b1010001 &
b1010001 %
b1010001 !
b1010001 "
b10000000001001010001 6
b10000000001001010001 5
#1600
0>
0?
0=
#1640
1>
1?
1=
1E
sCOMMA/0 G
b10111011101110111100 <
b10111011101110111100 ;
b1001010001001010 &
b1001010001001010 %
sTSn-ID1/4 %!
b1000000000100101000110110100111111110111 C
b11101110110111100 7
b11101110110111100 8
b1001010001001010 !
b1001010001001010 "
b10010010101001001010 6
b10010010101001001010 5
#1680
0>
0?
0=
#1720
1>
1?
1=
0E
sTSn-LANE-FTS/1 G
b10110100111111110111 <
b10110100111111110111 ;
sTSn-ID2/5 %!
b11101110 I
b1001001010100100101010000000001001010001 C
b11010011111110111 7
b11010011111110111 8
#1760
0>
0?
0=
#1800
1>
1?
1=
sTSn-DATA/3 G
b10000000001001010001 <
b10000000001001010001 ;
1K
sTSn-ID3/6 %!
b11010011 L
b1001001010100100101010010010101001001010 C
b1010001 7
b1010001 8
#1840
0>
0?
0=
#1880
1>
1?
1=
1S
0Y
sTSn-ID0/4 G
0T
0Q
b10010010101001001010 <
b10010010101001001010 ;
0K
sTSn-ID4/7 %!
0U
b10 R
b1001010001001010 7
b1001010001001010 8
#1920
0>
0?
0=
#1960
1>
1?
1=
sTSn-ID1/5 G
sIDLE/0 %!
#2000
0>
0?
0=
#2040
1>
1?
1=
1(!
sTSn-ID2/6 G
b1 &!
sTSn-LANE-FTS/1 %!
b11101110110111100 &
b11101110110111100 %
b11101110110111100 !
b11101110110111100 "
b10111011101110111100 6
b10111011101110111100 5
#2080
0>
0?
0=
#2120
1>
1?
1=
0(!
sTSn-ID3/7 G
b0 &!
b11010011111110111 &
b11010011111110111 %
sTSn-DATA/2 %!
b1011101110111011110010010010101001001010 C
b11010011111110111 !
b11010011111110111 "
b10110100111111110111 6
b10110100111111110111 5
#2160
0>
0?
0=
#2200
1>
1?
1=
sTSn-ID4/8 G
b1011010011111111011110111011101110111100 C
sTSn-ID0/3 %!
b1010001 &
b1010001 %
b1010001 !
b1010001 "
b10000000001001010001 6
b10000000001001010001 5
#2240
0>
0?
0=
#2280
1>
1?
1=
b11101110 p
0d
b10 e
0~
1f
b10111011101110111100 <
b10111011101110111100 ;
b11010011 s
0g
0h
1E
0v
b11101110 ^
b10 w
1x
b1001010001001010 &
b1001010001001010 %
0l
b1000000000100101000110110100111111110111 C
sCOMMA/0 G
0y
b11010011 a
0z
sTSn-ID1/4 %!
b11101110110111100 7
b11101110110111100 8
b1001010001001010 !
b1001010001001010 "
b10010010101001001010 6
b10010010101001001010 5
#2320
0>
0?
0=
#2360
1>
1?
1=
0E
sTSn-LANE-FTS/1 G
b10110100111111110111 <
b10110100111111110111 ;
b11101110 "!
sTSn-ID2/5 %!
b1001001010100100101010000000001001010001 C
b11010011111110111 7
b11010011111110111 8
#2400
0>
0?
0=
#2440
1>
1?
1=
sTSn-DATA/3 G
b10000000001001010001 <
b10000000001001010001 ;
1K
sTSn-ID3/6 %!
b1001001010100100101010010010101001001010 C
b1010001 7
b1010001 8
#2480
0>
0?
0=
#2520
1>
1?
1=
sTSn-ID0/4 G
sTSn-ID4/7 %!
0K
b10010010101001001010 <
b10010010101001001010 ;
b1001010001001010 7
b1001010001001010 8
#2560
0>
0?
0=
#2600
1>
1?
1=
11
12
b101 2!
sTSn-ID1/5 G
16!
19!
14!
17!
b10110011 0
b10110011 /
sIDLE/0 %!
b11011100 *!
03!
#2640
0>
0?
0=
#2680
1>
1?
1=
1(!
sTSn-ID2/6 G
b1 &!
sTSn-LANE-FTS/1 %!
b11011100110111100 &
b11011100110111100 %
b11011100110111100 !
b11011100110111100 "
b10110111001110111100 6
b10110111001110111100 5
#2720
0>
0?
0=
#2760
1>
1?
1=
0(!
sTSn-ID3/7 G
b0 &!
b10110011111110111 &
b10110011111110111 %
sTSn-DATA/2 %!
b1011011100111011110010010010101001001010 C
b10110011111110111 !
b10110011111110111 "
b10101100111111110111 6
b10101100111111110111 5
#2800
0>
0?
0=
#2840
1>
1?
1=
sTSn-ID4/8 G
b1010110011111111011110110111001110111100 C
sTSn-ID0/3 %!
b1011010101011 &
b1011010101011 %
b1011010101011 !
b1011010101011 "
b10000010111010101011 6
b10000010111010101011 5
#2880
0>
0?
0=
#2920
1>
1?
1=
1E
sCOMMA/0 G
b10110111001110111100 <
b10110111001110111100 ;
b1001010001001010 &
b1001010001001010 %
sTSn-ID1/4 %!
b1000001011101010101110101100111111110111 C
b11011100110111100 7
b11011100110111100 8
b1001010001001010 !
b1001010001001010 "
b10010010101001001010 6
b10010010101001001010 5
#2960
0>
0?
0=
#3000
1>
1?
1=
0E
sTSn-LANE-FTS/1 G
b10101100111111110111 <
b10101100111111110111 ;
sTSn-ID2/5 %!
b11011100 I
b1001001010100100101010000010111010101011 C
b10110011111110111 7
b10110011111110111 8
#3039
0>
0?
0=
#3079
1>
1?
1=
sTSn-DATA/3 G
b10000010111010101011 <
b10000010111010101011 ;
1K
sTSn-ID3/6 %!
b10110011 L
b1001001010100100101010010010101001001010 C
b1011010101011 7
b1011010101011 8
#3119
0>
0?
0=
#3159
1>
1?
1=
0S
1P
1V
sTSn-ID0/4 G
1T
b10010010101001001010 <
b10010010101001001010 ;
0K
sTSn-ID4/7 %!
1U
b101 R
1X
b1001010001001010 7
b1001010001001010 8
#3199
0>
0?
0=
#3239
1>
1?
1=
sTSn-ID1/5 G
sIDLE/0 %!
#3279
0>
0?
0=
#3319
1>
1?
1=
1(!
sTSn-ID2/6 G
b1 &!
sTSn-LANE-FTS/1 %!
b11011100110111100 &
b11011100110111100 %
b11011100110111100 !
b11011100110111100 "
b10110111001110111100 6
b10110111001110111100 5
#3359
0>
0?
0=
#3399
1>
1?
1=
0(!
sTSn-ID3/7 G
b0 &!
b10110011111110111 &
b10110011111110111 %
sTSn-DATA/2 %!
b1011011100111011110010010010101001001010 C
b10110011111110111 !
b10110011111110111 "
b10101100111111110111 6
b10101100111111110111 5
#3439
0>
0?
0=
#3479
1>
1?
1=
sTSn-ID4/8 G
b1010110011111111011110110111001110111100 C
sTSn-ID0/3 %!
b1011010101011 &
b1011010101011 %
b1011010101011 !
b1011010101011 "
b10000010111010101011 6
b10000010111010101011 5
#3519
0>
0?
0=
#3559
1>
1?
1=
1c
b11011100 p
1}
b101 e
0f
b10110111001110111100 <
b10110111001110111100 ;
b10110011 s
1g
1h
1u
1i
1E
b11011100 ^
b101 w
1k
b1001010001001010 &
b1001010001001010 %
b1000001011101010101110101100111111110111 C
0x
sCOMMA/0 G
1y
b10110011 a
1z
sTSn-ID1/4 %!
1{
b11011100110111100 7
b11011100110111100 8
b1001010001001010 !
b1001010001001010 "
b10010010101001001010 6
b10010010101001001010 5
#3599
0>
0?
0=
#3639
1>
1?
1=
0E
sTSn-LANE-FTS/1 G
b10101100111111110111 <
b10101100111111110111 ;
b11011100 "!
sTSn-ID2/5 %!
b1001001010100100101010000010111010101011 C
b10110011111110111 7
b10110011111110111 8
#3679
0>
0?
0=
#3719
1>
1?
1=
sTSn-DATA/3 G
b10000010111010101011 <
b10000010111010101011 ;
1K
sTSn-ID3/6 %!
b1001001010100100101010010010101001001010 C
b1011010101011 7
b1011010101011 8
#3759
0>
0?
0=
#3799
1>
1?
1=
sTSn-ID0/4 G
sTSn-ID4/7 %!
0K
b10010010101001001010 <
b10010010101001001010 ;
b1001010001001010 7
b1001010001001010 8
#3839
0>
0?
0=
#3879
1>
1?
1=
1:!
1<!
b1 2!
sTSn-ID1/5 G
06!
09!
00!
b110110 0
b110110 /
sIDLE/0 %!
b11101001 *!
18!
13!
#3919
0>
0?
0=
#3959
1>
1?
1=
1(!
sTSn-ID2/6 G
b1 &!
sTSn-LANE-FTS/1 %!
b11101001110111100 &
b11101001110111100 %
b11101001110111100 !
b11101001110111100 "
b10111010011110111100 6
b10111010011110111100 5
#3999
0>
0?
0=
#4039
1>
1?
1=
0(!
sTSn-ID3/7 G
b0 &!
b110110111110111 &
b110110111110111 %
sTSn-DATA/2 %!
b1011101001111011110010010010101001001010 C
b110110111110111 !
b110110111110111 "
b10001101101111110111 6
b10001101101111110111 5
#4079
0>
0?
0=
#4119
1>
1?
1=
sTSn-ID4/8 G
b1000110110111111011110111010011110111100 C
sTSn-ID0/3 %!
b10110011001010 &
b10110011001010 %
b10110011001010 !
b10110011001010 "
b10000101101011001010 6
b10000101101011001010 5
#4159
0>
0?
0=
#4199
1>
1?
1=
1E
sCOMMA/0 G
b10111010011110111100 <
b10111010011110111100 ;
b1000101001000101 &
b1000101001000101 %
sTSn-ID1/4 %!
b1000010110101100101010001101101111110111 C
b11101001110111100 7
b11101001110111100 8
b1000101001000101 !
b1000101001000101 "
b10010001011001000101 6
b10010001011001000101 5
#4239
0>
0?
0=
#4279
1>
1?
1=
0E
sTSn-LANE-FTS/1 G
b10001101101111110111 <
b10001101101111110111 ;
sTSn-ID2/5 %!
b11101001 I
b1001000101100100010110000101101011001010 C
b110110111110111 7
b110110111110111 8
#4319
0>
0?
0=
#4359
1>
1?
1=
sTSn-DATA/3 G
b10000101101011001010 <
b10000101101011001010 ;
1K
sTSn-ID3/6 %!
b110110 L
b1001000101100100010110010001011001000101 C
b10110011001010 7
b10110011001010 8
#4399
0>
0?
0=
#4439
1>
1?
1=
1S
1Y
sTSn-ID0/4 G
b10010001011001000101 <
b10010001011001000101 ;
1W
0K
sTSn-ID4/7 %!
0U
b1 R
0O
0X
b1000101001000101 7
b1000101001000101 8
#4479
0>
0?
0=
#4519
1>
1?
1=
sTSn-ID1/5 G
sIDLE/0 %!
1Z
#4559
0>
0?
0=
#4599
1>
1?
1=
1(!
sTSn-ID2/6 G
b1 &!
sTSn-LANE-FTS/1 %!
b11101001110111100 &
b11101001110111100 %
b11101001110111100 !
b11101001110111100 "
b10111010011110111100 6
b10111010011110111100 5
#4639
0>
0?
0=
#4679
1>
1?
1=
0(!
sTSn-ID3/7 G
b0 &!
b110110111110111 &
b110110111110111 %
sTSn-DATA/2 %!
b1011101001111011110010010001011001000101 C
b110110111110111 !
b110110111110111 "
b10001101101111110111 6
b10001101101111110111 5
#4719
0>
0?
0=
#4759
1>
1?
1=
sTSn-ID4/8 G
b1000110110111111011110111010011110111100 C
sTSn-ID0/3 %!
b10110011001010 &
b10110011001010 %
b10110011001010 !
b10110011001010 "
b10000101101011001010 6
b10000101101011001010 5
#4799
0>
0?
0=
#4839
1>
1?
1=
1|
b11101001 p
0}
b1 e
1~
1f
1!!
b10111010011110111100 <
b10111010011110111100 ;
b110110 s
0t
0h
1E
1j
b11101001 ^
b1 w
0k
b1000101001000101 &
b1000101001000101 %
b1000010110101100101010001101101111110111 C
1l
1x
sCOMMA/0 G
1m
b110110 a
0z
sTSn-ID1/4 %!
0b
b11101001110111100 7
b11101001110111100 8
b1000101001000101 !
b1000101001000101 "
b10010001011001000101 6
b10010001011001000101 5
#4879
0>
0?
0=
#4919
1>
1?
1=
0E
sTSn-LANE-FTS/1 G
b10001101101111110111 <
b10001101101111110111 ;
b11101001 "!
sTSn-ID2/5 %!
b1001000101100100010110000101101011001010 C
b110110111110111 7
b110110111110111 8
#4959
0>
0?
0=
#4999
1>
1?
1=
sTSn-DATA/3 G
b10000101101011001010 <
b10000101101011001010 ;
1K
sTSn-ID3/6 %!
b1001000101100100010110010001011001000101 C
b10110011001010 7
b10110011001010 8
#5039
0>
0?
0=
#5079
1>
1?
1=
sTSn-ID0/4 G
sTSn-ID4/7 %!
0K
b10010001011001000101 <
b10010001011001000101 ;
b1000101001000101 7
b1000101001000101 8
#5119
0>
0?
0=
#5159
1>
1?
1=
0:!
01
02
b111 2!
sTSn-ID1/5 G
1-
1.
19!
10!
04!
b111 -!
11!
sIDLE/0 %!
b1101101 *!
b10101 0
b10101 /
08!
#5199
0>
0?
0=
#5239
1>
1?
1=
1(!
sTSn-ID2/6 G
b1 &!
sTSn-LANE-FTS/1 %!
b1101101110111100 &
b1101101110111100 %
b1101101110111100 !
b1101101110111100 "
b10011011011110111100 6
b10011011011110111100 5
#5279
0>
0?
0=
#5319
1>
1?
1=
0(!
sTSn-ID3/7 G
b0 &!
b10101000000111 &
b10101000000111 %
sTSn-DATA/2 %!
b1001101101111011110010010001011001000101 C
b10101000000111 !
b10101000000111 "
b10000101011000000111 6
b10000101011000000111 5
#5359
0>
0?
0=
#5399
1>
1?
1=
sTSn-ID4/8 G
b1000010101100000011110011011011110111100 C
sTSn-ID0/3 %!
b1010001111101 &
b1010001111101 %
b1010001111101 !
b1010001111101 "
b10000010101001111101 6
b10000010101001111101 5
#5439
0>
0?
0=
#5479
1>
1?
1=
1E
sCOMMA/0 G
b10011011011110111100 <
b10011011011110111100 ;
b1000101001000101 &
b1000101001000101 %
sTSn-ID1/4 %!
b1000001010100111110110000101011000000111 C
b1101101110111100 7
b1101101110111100 8
b1000101001000101 !
b1000101001000101 "
b10010001011001000101 6
b10010001011001000101 5
#5519
0>
0?
0=
#5559
1>
1?
1=
0E
sTSn-LANE-FTS/1 G
b10000101011000000111 <
b10000101011000000111 ;
sTSn-ID2/5 %!
b1101101 I
b1001000101100100010110000010101001111101 C
b10101000000111 7
b10101000000111 8
#5599
0>
0?
0=
#5639
1>
1?
1=
1M
sTSn-DATA/3 G
b10000010101001111101 <
b10000010101001111101 ;
b111 N
1K
sTSn-ID3/6 %!
b10101 L
b1001000101100100010110010001011001000101 C
b1010001111101 7
b1010001111101 8
#5679
0>
0?
0=
#5719
1>
1?
1=
0P
0Y
sTSn-ID0/4 G
0T
b10010001011001000101 <
b10010001011001000101 ;
1Q
0W
0K
sTSn-ID4/7 %!
b111 R
1O
1X
b1000101001000101 7
b1000101001000101 8
#5759
0>
0?
0=
#5799
1>
1?
1=
sTSn-ID1/5 G
sIDLE/0 %!
#5839
0>
0?
0=
#5879
1>
1?
1=
1(!
sTSn-ID2/6 G
b1 &!
sTSn-LANE-FTS/1 %!
b1101101110111100 &
b1101101110111100 %
b1101101110111100 !
b1101101110111100 "
b10011011011110111100 6
b10011011011110111100 5
#5919
0>
0?
0=
#5959
1>
1?
1=
0(!
sTSn-ID3/7 G
b0 &!
b10101000000111 &
b10101000000111 %
sTSn-DATA/2 %!
b1001101101111011110010010001011001000101 C
b10101000000111 !
b10101000000111 "
b10000101011000000111 6
b10000101011000000111 5
#5999
0>
0?
0=
#6039
1>
1?
1=
sTSn-ID4/8 G
b1000010101100000011110011011011110111100 C
sTSn-ID0/3 %!
b1010001111101 &
b1010001111101 %
b1010001111101 !
b1010001111101 "
b10000010101001111101 6
b10000010101001111101 5
#6079
0>
0?
0=
#6119
1>
1?
1=
0c
0|
b1101101 p
1d
1}
1q
b111 e
0~
b111 r
b10011011011110111100 <
b10011011011110111100 ;
b10101 s
0g
1t
0u
1E
1v
0j
b1101101 ^
b111 w
1k
b1000101001000101 &
b1000101001000101 %
1_
0l
b1000001010100111110110000101011000000111 C
sCOMMA/0 G
b111 `
0y
b10101 a
sTSn-ID1/4 %!
1b
b1101101110111100 7
b1101101110111100 8
b1000101001000101 !
b1000101001000101 "
b10010001011001000101 6
b10010001011001000101 5
#6159
0>
0?
0=
#6199
1>
1?
1=
0E
sTSn-LANE-FTS/1 G
b10000101011000000111 <
b10000101011000000111 ;
b1101101 "!
sTSn-ID2/5 %!
b111 #!
b1001000101100100010110000010101001111101 C
b10101000000111 7
b10101000000111 8
#6239
0>
0?
0=
#6279
1>
1?
1=
sTSn-DATA/3 G
b10000010101001111101 <
b10000010101001111101 ;
1K
sTSn-ID3/6 %!
b1001000101100100010110010001011001000101 C
b1010001111101 7
b1010001111101 8
#6319
0>
0?
0=
#6359
1>
1?
1=
sTSn-ID0/4 G
sTSn-ID4/7 %!
0K
b10010001011001000101 <
b10010001011001000101 ;
b1000101001000101 7
b1000101001000101 8
#6399
0>
0?
0=
#6439
1>
1?
1=
sTSn-ID1/5 G
16!
0-
0.
09!
00!
07!
b10 0
b10 /
sIDLE/0 %!
b10111100 *!
18!
03!
#6479
0>
0?
0=
#6519
1>
1?
1=
1(!
sTSn-ID2/6 G
b1 &!
sTSn-LANE-FTS/1 %!
b10111100110111100 &
b10111100110111100 %
b10111100110111100 !
b10111100110111100 "
b10101111001110111100 6
b10101111001110111100 5
#6559
0>
0?
0=
#6599
1>
1?
1=
0(!
sTSn-ID3/7 G
b0 &!
b10111110111 &
b10111110111 %
sTSn-DATA/2 %!
b1010111100111011110010010001011001000101 C
b10111110111 !
b10111110111 "
b10000000101111110111 6
b10000000101111110111 5
#6639
0>
0?
0=
#6679
1>
1?
1=
sTSn-ID4/8 G
b1000000010111111011110101111001110111100 C
sTSn-ID0/3 %!
b101000111100 &
b101000111100 %
b101000111100 !
b101000111100 "
b10000001011000111100 6
b10000001011000111100 5
#6719
0>
0?
0=
#6759
1>
1?
1=
1E
sCOMMA/0 G
b10101111001110111100 <
b10101111001110111100 ;
b1000101001000101 &
b1000101001000101 %
sTSn-ID1/4 %!
b1000000101100011110010000000101111110111 C
b10111100110111100 7
b10111100110111100 8
b1000101001000101 !
b1000101001000101 "
b10010001011001000101 6
b10010001011001000101 5
#6799
0>
0?
0=
#6839
1>
1?
1=
0E
sTSn-LANE-FTS/1 G
b10000000101111110111 <
b10000000101111110111 ;
sTSn-ID2/5 %!
b10111100 I
b1001000101100100010110000001011000111100 C
b10111110111 7
b10111110111 8
#6879
0>
0?
0=
#6919
1>
1?
1=
0M
sTSn-DATA/3 G
b10000001011000111100 <
b10000001011000111100 ;
1K
sTSn-ID3/6 %!
b10 L
b1001000101100100010110010001011001000101 C
b101000111100 7
b101000111100 8
#6959
0>
0?
0=
#6999
1>
1?
1=
0S
0V
sTSn-ID0/4 G
b10010001011001000101 <
b10010001011001000101 ;
1W
0K
sTSn-ID4/7 %!
1U
0O
0X
b1000101001000101 7
b1000101001000101 8
#7039
0>
0?
0=
#7079
1>
1?
1=
sTSn-ID1/5 G
sIDLE/0 %!
#7119
0>
0?
0=
#7159
1>
1?
1=
1(!
sTSn-ID2/6 G
b1 &!
sTSn-LANE-FTS/1 %!
b10111100110111100 &
b10111100110111100 %
b10111100110111100 !
b10111100110111100 "
b10101111001110111100 6
b10101111001110111100 5
#7199
0>
0?
0=
#7239
1>
1?
1=
0(!
sTSn-ID3/7 G
b0 &!
b10111110111 &
b10111110111 %
sTSn-DATA/2 %!
b1010111100111011110010010001011001000101 C
b10111110111 !
b10111110111 "
b10000000101111110111 6
b10000000101111110111 5
#7279
0>
0?
0=
#7319
1>
1?
1=
sTSn-ID4/8 G
b1000000010111111011110101111001110111100 C
sTSn-ID0/3 %!
b101000111100 &
b101000111100 %
b101000111100 !
b101000111100 "
b10000001011000111100 6
b10000001011000111100 5
#7359
0>
0?
0=
