Tests/test.vcd
$comment Generated by nMigen $end
$date 2020-06-21 01:06:07.270843 $end
$timescale 100 ps $end
$scope module top $end
$scope module tx $end
$var wire 1 ! tx_clk $end
$var wire 1 " tx_rst $end
$var wire 2 # tx_e_idle $end
$var string 1 $ fsm_state $end
$var wire 18 % tx_symbol $end
$var wire 2 & tx_set_disp $end
$var wire 2 ' tx_disp $end
$var wire 1 ( start_send_ts $end
$var wire 1 ) ts__valid $end
$var wire 1 * idle $end
$var wire 1 + ts__link__valid $end
$var wire 8 , ts__link__number $end
$var wire 1 - $signal $end
$var wire 2 . eidle $end
$var wire 1 / ts__lane__valid $end
$var wire 5 0 ts__lane__number $end
$var wire 1 1 $signal$1 $end
$var wire 8 2 ts__n_fts $end
$var wire 1 3 $signal$2 $end
$var wire 1 4 ts__rate__reserved0 $end
$var wire 1 5 ts__rate__gen1 $end
$var wire 1 6 ts__rate__gen2 $end
$var wire 3 7 ts__rate__reserved1 $end
$var wire 1 8 ts__rate__autonomous_change $end
$var wire 1 9 ts__rate__speed_change $end
$var wire 1 : $signal$3 $end
$var wire 1 ; ts__ctrl__hot_reset $end
$var wire 1 < ts__ctrl__disable_link $end
$var wire 1 = ts__ctrl__loopback $end
$var wire 1 > ts__ctrl__disable_scrambling $end
$var wire 1 ? ts__ctrl__compliance_receive $end
$var wire 4 @ $signal$4 $end
$var wire 1 A ts__ts_id $end
$upscope $end
$upscope $end
$enddefinitions $end
#0
$dumpvars
0!
0"
b0 #
sIDLE/0 $
b0 %
b0 &
b0 '
0(
0)
0*
0+
b0 ,
0-
b0 .
0/
b0 0
01
b0 2
03
04
05
06
b0 7
08
09
0:
0;
0<
0=
0>
0?
b0 @
0A
$end
#40
1!
b101 7
1+
1A
1<
1)
b11100100 2
b11100111 ,
b100 0
1?
19
1=
#80
0!
#120
1!
sTSn-LANE-FTS/1 $
1(
b1 &
b11100111110111100 %
#160
0!
#200
1!
sTSn-DATA/2 $
0(
b0 &
b11100100111110111 %
#240
0!
#280
1!
sTSn-ID0/3 $
b10110010101000 %
#320
0!
#360
1!
sTSn-ID1/4 $
b1000101001000101 %
#400
0!
#440
1!
sTSn-ID2/5 $
#480
0!
#520
1!
sTSn-ID3/6 $
#560
0!
#600
1!
sTSn-ID4/7 $
#640
0!
#680
1!
b110 7
0+
0<
b11101111 2
b11111101 ,
b10100 0
sIDLE/0 $
1;
0?
#720
0!
#760
1!
sTSn-LANE-FTS/1 $
1(
b1 &
b111110111110111100 %
#800
0!
#840
1!
sTSn-DATA/2 $
0(
b0 &
b11101111111110111 %
#879
0!
#919
1!
sTSn-ID0/3 $
b101010110000 %
#959
0!
#999
1!
sTSn-ID1/4 $
b1000101001000101 %
#1039
0!
#1079
1!
sTSn-ID2/5 $
#1119
0!
#1159
1!
sTSn-ID3/6 $
#1199
0!
#1239
1!
sTSn-ID4/7 $
#1279
0!
#1320
1!
b100 7
1+
1/
1<
0A
b1110001 2
1>
b101110 ,
15
b1110 0
sIDLE/0 $
1?
09
16
#1360
0!
#1400
1!
sTSn-LANE-FTS/1 $
1(
b1 &
b101110110111100 %
#1440
0!
#1480
1!
sTSn-DATA/2 $
0(
b0 &
b1110001000001110 %
#1520
0!
#1560
1!
sTSn-ID0/3 $
b11111000100110 %
#1600
0!
#1640
1!
sTSn-ID1/4 $
b1001010001001010 %
#1680
0!
#1720
1!
sTSn-ID2/5 $
#1760
0!
#1800
1!
sTSn-ID3/6 $
#1840
0!
#1880
1!
sTSn-ID4/7 $
#1920
0!
#1960
1!
b101 7
0+
14
1A
0<
b10001010 2
18
b11010011 ,
0>
b10010 0
sIDLE/0 $
0;
06
0=
#2000
0!
#2040
1!
sTSn-LANE-FTS/1 $
1(
b1 &
b111110111110111100 %
#2080
0!
#2120
1!
sTSn-DATA/2 $
0(
b0 &
b10001010000010010 %
#2160
0!
#2200
1!
sTSn-ID0/3 $
b10000001101011 %
#2240
0!
#2280
1!
sTSn-ID1/4 $
b1000101001000101 %
#2320
0!
#2360
1!
sTSn-ID2/5 $
#2400
0!
#2440
1!
sTSn-ID3/6 $
#2480
0!
#2520
1!
sTSn-ID4/7 $
#2560
0!
#2600
1!
b110 7
04
0/
b10101111 2
1>
b10010110 ,
05
b10101 0
sIDLE/0 $
1;
16
1=
#2640
0!
#2680
1!
sTSn-LANE-FTS/1 $
1(
b1 &
b111110111110111100 %
#2720
0!
#2760
1!
sTSn-DATA/2 $
0(
b0 &
b10101111111110111 %
#2800
0!
#2840
1!
sTSn-ID0/3 $
b11101001110100 %
#2880
0!
#2920
1!
sTSn-ID1/4 $
b1000101001000101 %
#2960
0!
#3000
1!
sTSn-ID2/5 $
#3039
0!
#3079
1!
sTSn-ID3/6 $
#3119
0!
#3159
1!
sTSn-ID4/7 $
#3199
0!
#3239
1!
b0 7
1+
14
1/
1<
b1000111 2
b10001101 ,
15
b1000 0
sIDLE/0 $
0?
19
#3279
0!
#3319
1!
sTSn-LANE-FTS/1 $
1(
b1 &
b10001101110111100 %
#3359
0!
#3399
1!
sTSn-DATA/2 $
0(
b0 &
b1000111000001000 %
#3439
0!
#3479
1!
sTSn-ID0/3 $
b1111011000111 %
#3519
0!
#3559
1!
sTSn-ID1/4 $
b1000101001000101 %
#3599
0!
#3639
1!
sTSn-ID2/5 $
#3679
0!
#3719
1!
sTSn-ID3/6 $
#3759
0!
#3799
1!
sTSn-ID4/7 $
#3839
0!
#3879
1!
b10 7
0+
0<
b101101 2
b10011010 ,
05
b11000 0
sIDLE/0 $
0;
1?
0=
#3919
0!
#3959
1!
sTSn-LANE-FTS/1 $
1(
b1 &
b111110111110111100 %
#3999
0!
#4039
1!
sTSn-DATA/2 $
0(
b0 &
b101101000011000 %
#4079
0!
#4119
1!
sTSn-ID0/3 $
b11000011010101 %
#4159
0!
#4199
1!
sTSn-ID1/4 $
b1000101001000101 %
#4239
0!
#4279
1!
sTSn-ID2/5 $
#4319
0!
#4359
1!
sTSn-ID3/6 $
#4399
0!
#4439
1!
sTSn-ID4/7 $
#4479
0!
#4519
1!
b110 7
1<
b10111111 2
08
b11001000 ,
15
b1110 0
sIDLE/0 $
1;
0?
06
#4559
0!
#4599
1!
sTSn-LANE-FTS/1 $
1(
b1 &
b111110111110111100 %
#4639
0!
#4679
1!
sTSn-DATA/2 $
0(
b0 &
b10111111000001110 %
#4719
0!
#4759
1!
sTSn-ID0/3 $
b1011010110011 %
#4799
0!
#4839
1!
sTSn-ID1/4 $
b1000101001000101 %
#4879
0!
#4919
1!
sTSn-ID2/5 $
#4959
0!
#4999
1!
sTSn-ID3/6 $
#5039
0!
#5079
1!
sTSn-ID4/7 $
#5119
0!
#5159
1!
b0 7
04
0/
0<
0A
b1110000 2
18
b11100010 ,
05
0>
b1001 0
sIDLE/0 $
1?
16
#5199
0!
#5239
1!
sTSn-LANE-FTS/1 $
1(
b1 &
b111110111110111100 %
#5279
0!
#5319
1!
sTSn-DATA/2 $
0(
b0 &
b1110000111110111 %
#5359
0!
#5399
1!
sTSn-ID0/3 $
b10001011000100 %
#5439
0!
#5479
1!
sTSn-ID1/4 $
b1001010001001010 %
#5519
0!
#5559
1!
sTSn-ID2/5 $
#5599
0!
#5639
1!
sTSn-ID3/6 $
#5679
0!
#5719
1!
sTSn-ID4/7 $
#5759
0!
#5799
1!
b11 7
b10001010 2
08
b111 ,
15
1>
b10110 0
sIDLE/0 $
#5839
0!
#5879
1!
sTSn-LANE-FTS/1 $
1(
b1 &
b111110111110111100 %
#5919
0!
#5959
1!
sTSn-DATA/2 $
0(
b0 &
b10001010111110111 %
#5999
0!
#6039
1!
sTSn-ID0/3 $
b11001010011110 %
#6079
0!
#6119
1!
sTSn-ID1/4 $
b1001010001001010 %
#6159
0!
#6199
1!
sTSn-ID2/5 $
#6239
0!
#6279
1!
sTSn-ID3/6 $
#6319
0!
#6359
1!
sTSn-ID4/7 $
#6399
0!
#6439
1!
b110 7
14
b10001100 2
b11110010 ,
b0 0
sIDLE/0 $
0?
06
1=
#6479
0!
#6519
1!
sTSn-LANE-FTS/1 $
1(
b1 &
b111110111110111100 %
#6559
0!
#6599
1!
sTSn-DATA/2 $
0(
b0 &
b10001100111110111 %
#6639
0!
#6679
1!
sTSn-ID0/3 $
b1101010110011 %
#6719
0!
#6759
1!
sTSn-ID1/4 $
b1001010001001010 %
#6799
0!
#6839
1!
sTSn-ID2/5 $
#6879
0!
#6919
1!
sTSn-ID3/6 $
#6959
0!
#6999
1!
sTSn-ID4/7 $
#7039
0!
#7079
1!
b111 7
1<
b11111101 2
18
b110 ,
b1000 0
sIDLE/0 $
0;
1?
0=
#7119
0!
#7159
1!
sTSn-LANE-FTS/1 $
1(
b1 &
b111110111110111100 %
#7199
0!
#7239
1!
sTSn-DATA/2 $
0(
b0 &
b11111101111110111 %
#7279
0!
#7319
1!
sTSn-ID0/3 $
b11010011111011 %
#7359
0!
#7399
1!
sTSn-ID1/4 $
b1001010001001010 %
#7439
0!
#7479
1!
sTSn-ID2/5 $
#7519
0!
#7559
1!
sTSn-ID3/6 $
#7599
0!
#7639
1!
sTSn-ID4/7 $
#7679
0!
#7719
1!
b10 7
04
0<
b1 2
0>
b10011101 ,
05
b11001 0
sIDLE/0 $
1;
09
16
1=
#7759
0!
#7799
1!
sTSn-LANE-FTS/1 $
1(
b1 &
b111110111110111100 %
#7839
0!
#7879
1!
sTSn-DATA/2 $
0(
b0 &
b1111110111 %
#7919
0!
#7959
1!
sTSn-ID0/3 $
b10101001010100 %
#7999
0!
#8039
1!
sTSn-ID1/4 $
b1001010001001010 %
#8079
0!
#8119
1!
sTSn-ID2/5 $
#8159
0!
#8199
1!
sTSn-ID3/6 $
#8239
0!
#8279
1!
sTSn-ID4/7 $
#8319
0!
#8359
1!
b100 7
1+
1/
1<
b1011000 2
1>
b1011010 ,
b1101 0
sIDLE/0 $
06
#8399
0!
#8439
1!
sTSn-LANE-FTS/1 $
1(
b1 &
b1011010110111100 %
#8479
0!
#8519
1!
sTSn-DATA/2 $
0(
b0 &
b1011000000001101 %
#8559
0!
#8599
1!
sTSn-ID0/3 $
b11111001100000 %
#8639
0!
#8679
1!
sTSn-ID1/4 $
b1001010001001010 %
#8719
0!
#8759
1!
sTSn-ID2/5 $
#8799
0!
#8839
1!
sTSn-ID3/6 $
#8879
0!
#8919
1!
sTSn-ID4/7 $
#8959
0!
#8999
1!
b11 7
0+
1A
b1010110 2
08
b11000100 ,
0>
b1000 0
sIDLE/0 $
0?
19
16
#9039
0!
#9079
1!
sTSn-LANE-FTS/1 $
1(
b1 &
b111110111110111100 %
#9119
0!
#9159
1!
sTSn-DATA/2 $
0(
b0 &
b1010110000001000 %
#9199
0!
#9239
1!
sTSn-ID0/3 $
b111010011100 %
#9279
0!
#9319
1!
sTSn-ID1/4 $
b1000101001000101 %
#9359
0!
#9399
1!
sTSn-ID2/5 $
#9439
0!
#9479
1!
sTSn-ID3/6 $
#9519
0!
#9559
1!
sTSn-ID4/7 $
#9599
0!
#9639
1!
b0 7
1+
0A
0<
b10110111 2
18
b100011 ,
1>
b10 0
sIDLE/0 $
1?
09
06
#9679
0!
#9719
1!
sTSn-LANE-FTS/1 $
1(
b1 &
b100011110111100 %
#9759
0!
#9799
1!
sTSn-DATA/2 $
0(
b0 &
b10110111000000010 %
#9839
0!
#9879
1!
sTSn-ID0/3 $
b11101001000000 %
#9919
0!
#9959
1!
sTSn-ID1/4 $
b1001010001001010 %
#9999
0!
#10039
1!
sTSn-ID2/5 $
#10079
0!
#10119
1!
sTSn-ID3/6 $
#10159
0!
#10199
1!
sTSn-ID4/7 $
#10239
0!
#10279
1!
0+
14
1A
b11001001 2
b10110010 ,
15
b1 0
sIDLE/0 $
0?
19
16
#10319
0!
#10359
1!
sTSn-LANE-FTS/1 $
1(
b1 &
b111110111110111100 %
#10399
0!
#10439
1!
sTSn-DATA/2 $
0(
b0 &
b11001001000000001 %
#10479
0!
#10519
1!
sTSn-ID0/3 $
b1101011000111 %
#10559
0!
#10599
1!
sTSn-ID1/4 $
b1000101001000101 %
#10639
0!
#10679
1!
sTSn-ID2/5 $
#10719
0!
#10760
1!
sTSn-ID3/6 $
#10800
0!
#10840
1!
sTSn-ID4/7 $
#10880
0!
#10920
1!
b1 7
04
0/
0A
b11000011 2
08
b11000101 ,
05
0>
b11111 0
sIDLE/0 $
1?
#10960
0!
#11000
1!
sTSn-LANE-FTS/1 $
1(
b1 &
b111110111110111100 %
#11040
0!
#11080
1!
sTSn-DATA/2 $
0(
b0 &
b11000011111110111 %
#11120
0!
#11160
1!
sTSn-ID0/3 $
b10101010001100 %
#11200
0!
#11240
1!
sTSn-ID1/4 $
b1001010001001010 %
#11280
0!
#11320
1!
sTSn-ID2/5 $
#11360
0!
#11400
1!
sTSn-ID3/6 $
#11440
0!
#11480
1!
sTSn-ID4/7 $
#11520
0!
#11560
1!
b100 7
1/
b100001 2
18
b10010100 ,
15
b11001 0
sIDLE/0 $
0;
#11600
0!
#11640
1!
sTSn-LANE-FTS/1 $
1(
b1 &
b111110111110111100 %
#11680
0!
#11720
1!
sTSn-DATA/2 $
0(
b0 &
b100001000011001 %
#11760
0!
#11800
1!
sTSn-ID0/3 $
b10100011100110 %
#11840
0!
#11880
1!
sTSn-ID1/4 $
b1001010001001010 %
#11920
0!
#11960
1!
sTSn-ID2/5 $
#12000
0!
#12040
1!
sTSn-ID3/6 $
#12080
0!
#12120
1!
sTSn-ID4/7 $
#12160
0!
#12200
1!
b111 7
1+
1A
1<
b10001110 2
08
b1010101 ,
b11100 0
sIDLE/0 $
1;
09
06
#12240
0!
#12280
1!
sTSn-LANE-FTS/1 $
1(
b1 &
b1010101110111100 %
#12320
0!
#12360
1!
sTSn-DATA/2 $
0(
b0 &
b10001110000011100 %
#12400
0!
#12440
1!
sTSn-ID0/3 $
b10111000111010 %
#12480
0!
#12520
1!
sTSn-ID1/4 $
b1000101001000101 %
#12560
0!
#12600
1!
sTSn-ID2/5 $
#12640
0!
#12680
1!
sTSn-ID3/6 $
#12720
0!
#12760
1!
sTSn-ID4/7 $
#12800
0!
#12840
1!
b110 7
14
b11001011 2
1>
b10100011 ,
05
b11101 0
sIDLE/0 $
0;
19
16
0=
#12880
0!
#12920
1!
sTSn-LANE-FTS/1 $
1(
b1 &
b10100011110111100 %
#12960
0!
#13000
1!
sTSn-DATA/2 $
0(
b0 &
b11001011000011101 %
#13040
0!
#13080
1!
sTSn-ID0/3 $
b11010010110101 %
#13120
0!
#13160
1!
sTSn-ID1/4 $
b1000101001000101 %
#13200
0!
#13240
1!
sTSn-ID2/5 $
#13280
0!
#13320
1!
sTSn-ID3/6 $
#13360
0!
#13400
1!
sTSn-ID4/7 $
#13440
0!
#13480
1!
b1 7
0+
0<
b1111110 2
b111100 ,
15
b11100 0
sIDLE/0 $
0?
06
1=
#13520
0!
#13560
1!
sTSn-LANE-FTS/1 $
1(
b1 &
b111110111110111100 %
#13600
0!
#13640
1!
sTSn-DATA/2 $
0(
b0 &
b1111110000011100 %
#13680
0!
#13720
1!
sTSn-ID0/3 $
b1100010001011 %
#13760
0!
#13800
1!
sTSn-ID1/4 $
b1000101001000101 %
#13840
0!
#13880
1!
sTSn-ID2/5 $
#13920
0!
#13960
1!
sTSn-ID3/6 $
#14000
0!
#14040
1!
sTSn-ID4/7 $
#14080
0!
#14120
1!
04
1<
b1001110 2
b110100 ,
sIDLE/0 $
1;
1?
09
0=
#14160
0!
#14200
1!
sTSn-LANE-FTS/1 $
1(
b1 &
b111110111110111100 %
#14240
0!
#14280
1!
sTSn-DATA/2 $
0(
b0 &
b1001110000011100 %
#14320
0!
#14360
1!
sTSn-ID0/3 $
b11011000001010 %
#14400
0!
#14440
1!
sTSn-ID1/4 $
b1000101001000101 %
#14480
0!
#14520
1!
sTSn-ID2/5 $
#14560
0!
#14600
1!
sTSn-ID3/6 $
#14640
0!
#14680
1!
sTSn-ID4/7 $
#14720
0!
#14760
1!
b110 7
1+
14
0/
b10011001 2
18
b10101 ,
05
b0 0
sIDLE/0 $
#14800
0!
#14840
1!
sTSn-LANE-FTS/1 $
1(
b1 &
b10101110111100 %
#14880
0!
#14920
1!
sTSn-DATA/2 $
0(
b0 &
b10011001111110111 %
#14960
0!
#15000
1!
sTSn-ID0/3 $
b11011001110001 %
#15040
0!
#15080
1!
sTSn-ID1/4 $
b1000101001000101 %
#15120
0!
#15160
1!
sTSn-ID2/5 $
#15200
0!
#15240
1!
sTSn-ID3/6 $
#15280
0!
#15320
1!
sTSn-ID4/7 $
#15360
0!
#15400
1!
b10 7
04
0A
0<
b100100 2
0>
b11001100 ,
15
b11011 0
sIDLE/0 $
0?
19
16
1=
#15440
0!
#15480
1!
sTSn-LANE-FTS/1 $
1(
b1 &
b11001100110111100 %
#15520
0!
#15560
1!
sTSn-DATA/2 $
0(
b0 &
b100100111110111 %
#15600
0!
#15640
1!
sTSn-ID0/3 $
b101011010110 %
#15680
0!
#15720
1!
sTSn-ID1/4 $
b1001010001001010 %
#15760
0!
#15800
1!
sTSn-ID2/5 $
#15840
0!
#15880
1!
sTSn-ID3/6 $
#15920
0!
#15960
1!
sTSn-ID4/7 $
#16000
0!
#16040
1!
b110 7
1<
b10010 2
08
b1000101 ,
05
1>
b10100 0
sIDLE/0 $
#16080
0!
#16120
1!
sTSn-LANE-FTS/1 $
1(
b1 &
b1000101110111100 %
#16160
0!
#16200
1!
sTSn-DATA/2 $
0(
b0 &
b10010111110111 %
#16240
0!
#16280
1!
sTSn-ID0/3 $
b1111010110100 %
#16320
0!
#16360
1!
sTSn-ID1/4 $
b1001010001001010 %
#16400
0!
#16440
1!
sTSn-ID2/5 $
#16480
0!
#16520
1!
sTSn-ID3/6 $
#16560
0!
#16600
1!
sTSn-ID4/7 $
#16640
0!
#16680
1!
b1 7
14
1A
b10100000 2
18
b10011011 ,
15
b111 0
sIDLE/0 $
09
06
#16720
0!
#16760
1!
sTSn-LANE-FTS/1 $
1(
b1 &
b10011011110111100 %
#16800
0!
#16840
1!
sTSn-DATA/2 $
0(
b0 &
b10100000111110111 %
#16880
0!
#16920
1!
sTSn-ID0/3 $
b1111001001011 %
#16960
0!
#17000
1!
sTSn-ID1/4 $
b1000101001000101 %
#17040
0!
#17080
1!
sTSn-ID2/5 $
#17120
0!
#17160
1!
sTSn-ID3/6 $
#17200
0!
#17240
1!
sTSn-ID4/7 $
#17280
0!
#17320
1!
04
0A
b10111001 2
08
b10101011 ,
05
b10001 0
sIDLE/0 $
1?
16
#17360
0!
#17400
1!
sTSn-LANE-FTS/1 $
1(
b1 &
b10101011110111100 %
#17440
0!
#17480
1!
sTSn-DATA/2 $
0(
b0 &
b10111001111110111 %
#17520
0!
#17560
1!
sTSn-ID0/3 $
b11111000001100 %
#17600
0!
#17640
1!
sTSn-ID1/4 $
b1001010001001010 %
#17680
0!
#17720
1!
sTSn-ID2/5 $
#17760
0!
#17800
1!
sTSn-ID3/6 $
#17840
0!
#17880
1!
sTSn-ID4/7 $
#17920
0!
#17960
1!
b100 7
0+
14
1/
0<
1A
b10010001 2
b101110 ,
15
b11101 0
sIDLE/0 $
06
#18000
0!
#18040
1!
sTSn-LANE-FTS/1 $
1(
b1 &
b111110111110111100 %
#18080
0!
#18120
1!
sTSn-DATA/2 $
0(
b0 &
b10010001000011101 %
#18160
0!
#18200
1!
sTSn-ID0/3 $
b11101000100011 %
#18240
0!
#18280
1!
sTSn-ID1/4 $
b1000101001000101 %
#18320
0!
#18360
1!
sTSn-ID2/5 $
#18400
0!
#18440
1!
sTSn-ID3/6 $
#18480
0!
#18520
1!
sTSn-ID4/7 $
#18560
0!
#18600
1!
b11 7
1+
04
1<
b11101110 2
b10101101 ,
b10010 0
sIDLE/0 $
0?
0=
#18640
0!
#18680
1!
sTSn-LANE-FTS/1 $
1(
b1 &
b10101101110111100 %
#18720
0!
#18760
1!
sTSn-DATA/2 $
0(
b0 &
b11101110000010010 %
#18800
0!
#18840
1!
sTSn-ID0/3 $
b1011000011010 %
#18880
0!
#18920
1!
sTSn-ID1/4 $
b1000101001000101 %
#18960
0!
#19000
1!
sTSn-ID2/5 $
#19040
0!
#19080
1!
sTSn-ID3/6 $
#19120
0!
#19160
1!
sTSn-ID4/7 $
#19200
0!
#19240
1!
0+
0<
b1110 2
18
b110100 ,
05
0>
b11110 0
sIDLE/0 $
0;
16
#19280
0!
#19320
1!
sTSn-LANE-FTS/1 $
1(
b1 &
b111110111110111100 %
#19360
0!
#19400
1!
sTSn-DATA/2 $
0(
b0 &
b1110000011110 %
#19440
0!
#19480
1!
sTSn-ID0/3 $
b1011100 %
#19520
0!
#19560
1!
sTSn-ID1/4 $
b1000101001000101 %
#19600
0!
#19640
1!
sTSn-ID2/5 $
#19680
0!
#19720
1!
sTSn-ID3/6 $
#19760
0!
#19800
1!
sTSn-ID4/7 $
#19840
0!
#19880
1!
1+
0/
1<
b100001 2
08
b1011011 ,
b10101 0
sIDLE/0 $
19
06
1=
#19920
0!
#19960
1!
sTSn-LANE-FTS/1 $
1(
b1 &
b1011011110111100 %
#20000
0!
#20040
1!
sTSn-DATA/2 $
0(
b0 &
b100001111110111 %
#20080
0!
#20120
1!
sTSn-ID0/3 $
b110010011000 %
#20160
0!
#20200
1!
sTSn-ID1/4 $
b1000101001000101 %
#20240
0!
#20280
1!
sTSn-ID2/5 $
#20320
0!
#20360
1!
sTSn-ID3/6 $
#20400
0!
#20440
1!
sTSn-ID4/7 $
#20480
0!
#20520
1!
b110 7
14
1/
0<
b10001110 2
18
b11111011 ,
sIDLE/0 $
0=
#20560
0!
#20600
1!
sTSn-LANE-FTS/1 $
1(
b1 &
b11111011110111100 %
#20640
0!
#20680
1!
sTSn-DATA/2 $
0(
b0 &
b10001110000010101 %
#20720
0!
#20760
1!
sTSn-ID0/3 $
b11110001 %
#20800
0!
#20840
1!
sTSn-ID1/4 $
b1000101001000101 %
#20880
0!
#20920
1!
sTSn-ID2/5 $
#20960
0!
#21000
1!
sTSn-ID3/6 $
#21040
0!
#21080
1!
sTSn-ID4/7 $
#21120
0!
#21160
1!
b11 7
0/
0A
b11101 2
08
b1111001 ,
1>
b101 0
sIDLE/0 $
1?
09
16
1=
#21200
0!
#21240
1!
sTSn-LANE-FTS/1 $
1(
b1 &
b1111001110111100 %
#21280
0!
#21320
1!
sTSn-DATA/2 $
0(
b0 &
b11101111110111 %
#21360
0!
#21400
1!
sTSn-ID0/3 $
b11100000011101 %
#21440
0!
#21480
1!
sTSn-ID1/4 $
b1001010001001010 %
#21520
0!
#21560
1!
sTSn-ID2/5 $
#21600
0!
#21640
1!
sTSn-ID3/6 $
#21680
0!
#21720
1!
sTSn-ID4/7 $
#21760
0!
#21800
1!
b111 7
1A
b1000001 2
b100011 ,
15
b11011 0
sIDLE/0 $
0?
19
06
0=
#21840
0!
#21880
1!
sTSn-LANE-FTS/1 $
1(
b1 &
b100011110111100 %
#21920
0!
#21960
1!
sTSn-DATA/2 $
0(
b0 &
b1000001111110111 %
#22000
0!
#22040
1!
sTSn-ID0/3 $
b1000010111011 %
#22080
0!
#22120
1!
sTSn-ID1/4 $
b1000101001000101 %
#22160
0!
#22200
1!
sTSn-ID2/5 $
#22240
0!
#22280
1!
sTSn-ID3/6 $
#22320
0!
#22360
1!
sTSn-ID4/7 $
#22400
0!
#22440
1!
b1 7
0+
1/
b1010111 2
18
b101111 ,
b11100 0
sIDLE/0 $
1;
09
16
1=
#22480
0!
#22520
1!
sTSn-LANE-FTS/1 $
1(
b1 &
b111110111110111100 %
#22560
0!
#22600
1!
sTSn-DATA/2 $
0(
b0 &
b1010111000011100 %
#22640
0!
#22680
1!
sTSn-ID0/3 $
b1101001001111 %
#22720
0!
#22760
1!
sTSn-ID1/4 $
b1000101001000101 %
#22800
0!
#22840
1!
sTSn-ID2/5 $
#22880
0!
#22920
1!
sTSn-ID3/6 $
#22960
0!
#23000
1!
sTSn-ID4/7 $
#23040
0!
#23080
1!
b101 7
0/
1<
b11110111 2
08
b11010111 ,
05
0>
b111 0
sIDLE/0 $
1?
19
#23120
0!
#23160
1!
sTSn-LANE-FTS/1 $
1(
b1 &
b111110111110111100 %
#23200
0!
#23240
1!
sTSn-DATA/2 $
0(
b0 &
b11110111111110111 %
#23280
0!
#23320
1!
sTSn-ID0/3 $
b10111010101101 %
#23360
0!
#23400
1!
sTSn-ID1/4 $
b1000101001000101 %
#23440
0!
#23480
1!
sTSn-ID2/5 $
#23520
0!
#23560
1!
sTSn-ID3/6 $
#23600
0!
#23640
1!
sTSn-ID4/7 $
#23680
0!
#23720
1!
b10 7
1+
04
b100000 2
b1001110 ,
b10100 0
sIDLE/0 $
0;
#23760
0!
#23800
1!
sTSn-LANE-FTS/1 $
1(
b1 &
b1001110110111100 %
#23840
0!
#23880
1!
sTSn-DATA/2 $
0(
b0 &
b100000111110111 %
#23920
0!
#23960
1!
sTSn-ID0/3 $
b10110010010100 %
#24000
0!
#24040
1!
sTSn-ID1/4 $
b1000101001000101 %
#24080
0!
#24120
1!
sTSn-ID2/5 $
#24160
0!
#24200
1!
sTSn-ID3/6 $
#24240
0!
#24280
1!
sTSn-ID4/7 $
#24320
0!
#24360
1!
b11 7
0+
0<
b110010 ,
b11101 0
sIDLE/0 $
0=
#24400
0!
#24440
1!
sTSn-LANE-FTS/1 $
1(
b1 &
b111110111110111100 %
#24480
0!
#24520
1!
sTSn-DATA/2 $
0(
b0 &
b100000111110111 %
#24560
0!
#24600
1!
sTSn-ID0/3 $
b10000010011100 %
#24640
0!
#24680
1!
sTSn-ID1/4 $
b1000101001000101 %
#24720
0!
#24760
1!
sTSn-ID2/5 $
#24800
0!
#24840
1!
sTSn-ID3/6 $
#24880
0!
#24920
1!
sTSn-ID4/7 $
#24960
0!
#25000
1!
b10 7
14
0A
1<
b11110001 2
18
b1011 ,
15
b10110 0
sIDLE/0 $
1;
0?
09
1=
#25040
0!
#25080
1!
sTSn-LANE-FTS/1 $
1(
b1 &
b111110111110111100 %
#25120
0!
#25159
1!
sTSn-DATA/2 $
0(
b0 &
b11110001111110111 %
#25199
0!
#25239
1!
sTSn-ID0/3 $
b111001010111 %
#25279
0!
#25319
1!
sTSn-ID1/4 $
b1001010001001010 %
#25359
0!
#25399
1!
sTSn-ID2/5 $
#25439
0!
#25479
1!
sTSn-ID3/6 $
#25519
0!
#25559
1!
sTSn-ID4/7 $
#25599
0!
#25639
1!
b110 7
04
b100111 2
08
b10010 ,
b111 0
sIDLE/0 $
1?
19
0=
#25679
0!
#25719
1!
sTSn-LANE-FTS/1 $
1(
b1 &
b111110111110111100 %
#25759
0!
#25799
1!
sTSn-DATA/2 $
0(
b0 &
b100111111110111 %
#25839
0!
#25879
1!
sTSn-ID0/3 $
b10011010110110 %
#25919
0!
#25959
1!
sTSn-ID1/4 $
b1001010001001010 %
#25999
0!
#26039
1!
sTSn-ID2/5 $
#26079
0!
#26119
1!
sTSn-ID3/6 $
#26159
0!
#26199
1!
sTSn-ID4/7 $
#26239
0!
#26279
1!
b111 7
1/
1A
b11011101 2
1>
b1000111 ,
sIDLE/0 $
09
#26319
0!
#26359
1!
sTSn-LANE-FTS/1 $
1(
b1 &
b111110111110111100 %
#26399
0!
#26439
1!
sTSn-DATA/2 $
0(
b0 &
b11011101000000111 %
#26479
0!
#26519
1!
sTSn-ID0/3 $
b11011000111110 %
#26559
0!
#26599
1!
sTSn-ID1/4 $
b1000101001000101 %
#26639
0!
#26679
1!
sTSn-ID2/5 $
#26719
0!
#26759
1!
sTSn-ID3/6 $
#26799
0!
#26839
1!
sTSn-ID4/7 $
#26879
0!
#26919
1!
b11 7
1+
b1111000 2
18
b1111110 ,
0>
b10101 0
sIDLE/0 $
06
1=
#26959
0!
#26999
1!
sTSn-LANE-FTS/1 $
1(
b1 &
b1111110110111100 %
#27039
0!
#27079
1!
sTSn-DATA/2 $
0(
b0 &
b1111000000010101 %
#27119
0!
#27159
1!
sTSn-ID0/3 $
b10111001011010 %
#27199
0!
#27239
1!
sTSn-ID1/4 $
b1000101001000101 %
#27279
0!
#27319
1!
sTSn-ID2/5 $
#27359
0!
#27399
1!
sTSn-ID3/6 $
#27439
0!
#27479
1!
sTSn-ID4/7 $
#27519
0!
#27559
1!
b0 7
14
0<
b11010000 2
b10011001 ,
b11000 0
sIDLE/0 $
0;
0?
19
16
0=
#27599
0!
#27639
1!
sTSn-LANE-FTS/1 $
1(
b1 &
b10011001110111100 %
#27679
0!
#27719
1!
sTSn-DATA/2 $
0(
b0 &
b11010000000011000 %
#27759
0!
#27799
1!
sTSn-ID0/3 $
b11000111 %
#27839
0!
#27879
1!
sTSn-ID1/4 $
b1000101001000101 %
#27919
0!
#27959
1!
sTSn-ID2/5 $
#27999
0!
#28039
1!
sTSn-ID3/6 $
#28079
0!
#28119
1!
sTSn-ID4/7 $
#28159
0!
#28199
1!
b100 7
04
0/
0A
b1011110 2
b1100010 ,
b111 0
sIDLE/0 $
1;
1?
09
06
1=
#28239
0!
#28279
1!
sTSn-LANE-FTS/1 $
1(
b1 &
b1100010110111100 %
#28319
0!
#28359
1!
sTSn-DATA/2 $
0(
b0 &
b1011110111110111 %
#28399
0!
#28439
1!
sTSn-ID0/3 $
b10101001100010 %
#28479
0!
#28519
1!
sTSn-ID1/4 $
b1001010001001010 %
#28559
0!
#28599
1!
sTSn-ID2/5 $
#28639
0!
#28679
1!
sTSn-ID3/6 $
#28719
0!
#28759
1!
sTSn-ID4/7 $
#28799
0!
#28839
1!
b11 7
1/
1<
b11111010 2
08
b11001101 ,
05
b1001 0
sIDLE/0 $
0;
16
#28879
0!
#28919
1!
sTSn-LANE-FTS/1 $
1(
b1 &
b11001101110111100 %
#28959
0!
