Tests/test.vcd
$comment Generated by nMigen $end
$date 2020-07-31 23:15:43.389140 $end
$timescale 100 ps $end
$scope module top $end
$scope module tx $end
$var wire 1 ! rx_clk $end
$var wire 1 " rx_rst $end
$var wire 2 # tx_e_idle $end
$var string 1 $ fsm_state $end
$var wire 18 % tx_symbol $end
$var wire 1 & start_send_ts $end
$var wire 2 ' tx_set_disp $end
$var wire 1 ( ts__valid $end
$var wire 1 ) idle $end
$var wire 1 * ts__link__valid $end
$var wire 8 + ts__link__number $end
$var wire 1 , $signal $end
$var wire 2 - eidle $end
$var wire 1 . ts__lane__valid $end
$var wire 5 / ts__lane__number $end
$var wire 1 0 $signal$1 $end
$var wire 8 1 ts__n_fts $end
$var wire 1 2 $signal$2 $end
$var wire 1 3 ts__rate__reserved0 $end
$var wire 1 4 ts__rate__gen1 $end
$var wire 1 5 ts__rate__gen2 $end
$var wire 3 6 ts__rate__reserved1 $end
$var wire 1 7 ts__rate__autonomous_change $end
$var wire 1 8 ts__rate__speed_change $end
$var wire 1 9 $signal$3 $end
$var wire 1 : ts__ctrl__hot_reset $end
$var wire 1 ; ts__ctrl__disable_link $end
$var wire 1 < ts__ctrl__loopback $end
$var wire 1 = ts__ctrl__disable_scrambling $end
$var wire 1 > ts__ctrl__compliance_receive $end
$var wire 4 ? $signal$4 $end
$var wire 1 @ ts__ts_id $end
$upscope $end
$upscope $end
$enddefinitions $end
#0
$dumpvars
0!
0"
b0 #
sIDLE/0 $
b0 %
0&
b0 '
0(
0)
0*
b0 +
0,
b0 -
0.
b0 /
00
b0 1
02
03
04
05
b0 6
07
08
09
0:
0;
0<
0=
0>
b0 ?
0@
$end
#40
1!
1=
1(
1;
b11010110 1
b11111 +
14
1>
b1001 /
1@
b111 6
#80
0!
#120
1!
b111110111110111100 %
1&
sTSn-LANE-FTS/1 $
#160
0!
#200
1!
b11010110111110111 %
0&
sTSn-DATA/2 $
#240
0!
#280
1!
b11010000111010 %
sTSn-ID0/3 $
#320
0!
#360
1!
b1000101001000101 %
sTSn-ID1/4 $
#400
0!
#440
1!
sTSn-ID2/5 $
#480
0!
#520
1!
sTSn-ID3/6 $
#560
0!
#600
1!
sTSn-ID4/7 $
#640
0!
#680
1!
13
sIDLE/0 $
b11001101 1
17
b10100000 +
0>
b11101 /
1:
15
1*
b10 6
#720
0!
#760
1!
b10100000110111100 %
1&
sTSn-LANE-FTS/1 $
#800
0!
#840
1!
b11001101111110111 %
0&
sTSn-DATA/2 $
#879
0!
#919
1!
b1011001010111 %
sTSn-ID0/3 $
#959
0!
#999
1!
b1000101001000101 %
sTSn-ID1/4 $
#1039
0!
#1079
1!
sTSn-ID2/5 $
#1119
0!
#1159
1!
sTSn-ID3/6 $
#1199
0!
#1239
1!
sTSn-ID4/7 $
#1279
0!
#1320
1!
03
0=
1.
sIDLE/0 $
b11100100 1
b1010100 +
04
1>
b10 /
18
0@
b11 6
#1360
0!
#1400
1!
b1010100110111100 %
1&
sTSn-LANE-FTS/1 $
#1440
0!
#1480
1!
b11100100000000010 %
0&
sTSn-DATA/2 $
#1520
0!
#1560
1!
b10011011011100 %
sTSn-ID0/3 $
#1600
0!
#1640
1!
b1001010001001010 %
sTSn-ID1/4 $
#1680
0!
#1720
1!
sTSn-ID2/5 $
#1760
0!
#1800
1!
sTSn-ID3/6 $
#1840
0!
#1880
1!
sTSn-ID4/7 $
#1920
0!
#1960
1!
0;
sIDLE/0 $
b10101101 1
b1101100 +
14
0>
b1110 /
08
b101 6
#2000
0!
#2040
1!
b1101100110111100 %
1&
sTSn-LANE-FTS/1 $
#2080
0!
#2120
1!
b10101101000001110 %
0&
sTSn-DATA/2 $
#2160
0!
#2200
1!
b1001101110 %
sTSn-ID0/3 $
#2240
0!
#2280
1!
b1001010001001010 %
sTSn-ID1/4 $
#2320
0!
#2360
1!
sTSn-ID2/5 $
#2400
0!
#2440
1!
sTSn-ID3/6 $
#2480
0!
#2520
1!
sTSn-ID4/7 $
#2560
0!
#2600
1!
0.
1;
sIDLE/0 $
b11100000 1
07
b100111 +
b1001 /
b10 6
#2640
0!
#2680
1!
b100111110111100 %
1&
sTSn-LANE-FTS/1 $
#2720
0!
#2760
1!
b11100000111110111 %
0&
sTSn-DATA/2 $
#2800
0!
#2840
1!
b11000010110 %
sTSn-ID0/3 $
#2880
0!
#2920
1!
b1001010001001010 %
sTSn-ID1/4 $
#2960
0!
#3000
1!
sTSn-ID2/5 $
#3039
0!
#3079
1!
sTSn-ID3/6 $
#3119
0!
#3159
1!
sTSn-ID4/7 $
#3199
0!
#3239
1!
1.
0;
sIDLE/0 $
b1100100 1
17
b1000010 +
04
1>
b1111 /
0:
1@
b110 6
#3279
0!
#3319
1!
b1000010110111100 %
1&
sTSn-LANE-FTS/1 $
#3359
0!
#3399
1!
b1100100000001111 %
0&
sTSn-DATA/2 $
#3439
0!
#3479
1!
b10000001110100 %
sTSn-ID0/3 $
#3519
0!
#3559
1!
b1000101001000101 %
sTSn-ID1/4 $
#3599
0!
#3639
1!
sTSn-ID2/5 $
#3679
0!
#3719
1!
sTSn-ID3/6 $
#3759
0!
#3799
1!
sTSn-ID4/7 $
#3839
0!
#3879
1!
1=
sIDLE/0 $
b1000000 1
07
b101111 +
0>
b11010 /
05
0*
0@
b11 6
#3919
0!
#3959
1!
b111110111110111100 %
1&
sTSn-LANE-FTS/1 $
#3999
0!
#4039
1!
b1000000000011010 %
0&
sTSn-DATA/2 $
#4079
0!
#4119
1!
b1000000011000 %
sTSn-ID0/3 $
#4159
0!
#4199
1!
b1001010001001010 %
sTSn-ID1/4 $
#4239
0!
#4279
1!
sTSn-ID2/5 $
#4319
0!
#4359
1!
sTSn-ID3/6 $
#4399
0!
#4439
1!
sTSn-ID4/7 $
#4479
0!
#4519
1!
0=
0.
1;
sIDLE/0 $
b10000000 1
b11001101 +
14
18
15
1<
b10 6
#4559
0!
#4599
1!
b111110111110111100 %
1&
sTSn-LANE-FTS/1 $
#4639
0!
#4679
1!
b10000000111110111 %
0&
sTSn-DATA/2 $
#4719
0!
#4759
1!
b110010010110 %
sTSn-ID0/3 $
#4799
0!
#4839
1!
b1001010001001010 %
sTSn-ID1/4 $
#4879
0!
#4919
1!
sTSn-ID2/5 $
#4959
0!
#4999
1!
sTSn-ID3/6 $
#5039
0!
#5079
1!
sTSn-ID4/7 $
#5119
0!
#5159
1!
1=
0;
sIDLE/0 $
b10110101 1
17
b11011001 +
b11 /
1:
b0 6
#5199
0!
#5239
1!
b111110111110111100 %
1&
sTSn-LANE-FTS/1 $
#5279
0!
#5319
1!
b10110101111110111 %
0&
sTSn-DATA/2 $
#5359
0!
#5399
1!
b1101011000110 %
sTSn-ID0/3 $
#5439
0!
#5479
1!
b1001010001001010 %
sTSn-ID1/4 $
#5519
0!
#5559
1!
sTSn-ID2/5 $
#5599
0!
#5639
1!
sTSn-ID3/6 $
#5679
0!
#5719
1!
sTSn-ID4/7 $
#5759
0!
#5799
1!
13
1;
sIDLE/0 $
b10001110 1
07
b101 +
b1110 /
05
1*
1@
b111 6
#5839
0!
#5879
1!
b101110111100 %
1&
sTSn-LANE-FTS/1 $
#5919
0!
#5959
1!
b10001110111110111 %
0&
sTSn-DATA/2 $
#5999
0!
#6039
1!
b1111010111011 %
sTSn-ID0/3 $
#6079
0!
#6119
1!
b1000101001000101 %
sTSn-ID1/4 $
#6159
0!
#6199
1!
sTSn-ID2/5 $
#6239
0!
#6279
1!
sTSn-ID3/6 $
#6319
0!
#6359
1!
sTSn-ID4/7 $
#6399
0!
#6439
1!
03
0=
0;
sIDLE/0 $
b11000000 1
17
b11000 +
04
1>
b11110 /
08
15
0<
b100 6
#6479
0!
#6519
1!
b11000110111100 %
1&
sTSn-LANE-FTS/1 $
#6559
0!
#6599
1!
b11000000111110111 %
0&
sTSn-DATA/2 $
#6639
0!
#6679
1!
b10001001100100 %
sTSn-ID0/3 $
#6719
0!
#6759
1!
b1000101001000101 %
sTSn-ID1/4 $
#6799
0!
#6839
1!
sTSn-ID2/5 $
#6879
0!
#6919
1!
sTSn-ID3/6 $
#6959
0!
#6999
1!
sTSn-ID4/7 $
#7039
0!
#7079
1!
13
1.
sIDLE/0 $
b10000010 1
07
b1110011 +
0>
0:
18
0@
b0 6
#7119
0!
#7159
1!
b1110011110111100 %
1&
sTSn-LANE-FTS/1 $
#7199
0!
#7239
1!
b10000010000011110 %
0&
sTSn-DATA/2 $
#7279
0!
#7319
1!
b10000101 %
sTSn-ID0/3 $
#7359
0!
#7399
1!
b1001010001001010 %
sTSn-ID1/4 $
#7439
0!
#7479
1!
sTSn-ID2/5 $
#7519
0!
#7559
1!
sTSn-ID3/6 $
#7599
0!
#7639
1!
sTSn-ID4/7 $
#7679
0!
#7719
1!
03
sIDLE/0 $
b11000101 1
b1100110 +
14
1>
b10111 /
1:
08
05
1<
0*
1@
b101 6
#7759
0!
#7799
1!
b111110111110111100 %
1&
sTSn-LANE-FTS/1 $
#7839
0!
#7879
1!
b11000101000010111 %
0&
sTSn-DATA/2 $
#7919
0!
#7959
1!
b10101000101010 %
sTSn-ID0/3 $
#7999
0!
#8039
1!
b1000101001000101 %
sTSn-ID1/4 $
#8079
0!
#8119
1!
sTSn-ID2/5 $
#8159
0!
#8199
1!
sTSn-ID3/6 $
#8239
0!
#8279
1!
sTSn-ID4/7 $
#8319
0!
#8359
1!
0.
sIDLE/0 $
b1111101 1
b10100011 +
b10110 /
0:
15
0<
1*
0@
b100 6
#8399
0!
#8439
1!
b10100011110111100 %
1&
sTSn-LANE-FTS/1 $
#8479
0!
#8519
1!
b1111101111110111 %
0&
sTSn-DATA/2 $
#8559
0!
#8599
1!
b10000000100110 %
sTSn-ID0/3 $
#8639
0!
#8679
1!
b1001010001001010 %
sTSn-ID1/4 $
#8719
0!
#8759
1!
sTSn-ID2/5 $
#8799
0!
#8839
1!
sTSn-ID3/6 $
#8879
0!
#8919
1!
sTSn-ID4/7 $
#8959
0!
#8999
1!
1.
sIDLE/0 $
b10001001 1
17
b10101000 +
04
0>
b110 /
1<
0*
1@
b10 6
#9039
0!
#9079
1!
b111110111110111100 %
1&
sTSn-LANE-FTS/1 $
#9119
0!
#9159
1!
b10001001000000110 %
0&
sTSn-DATA/2 $
#9199
0!
#9239
1!
b100001010100 %
sTSn-ID0/3 $
#9279
0!
#9319
1!
b1000101001000101 %
sTSn-ID1/4 $
#9359
0!
#9399
1!
sTSn-ID2/5 $
#9439
0!
#9479
1!
sTSn-ID3/6 $
#9519
0!
#9559
1!
sTSn-ID4/7 $
#9599
0!
#9639
1!
1;
sIDLE/0 $
b11010111 1
b10111001 +
1>
b1 /
1:
05
0<
1*
0@
b101 6
#9679
0!
#9719
1!
b10111001110111100 %
1&
sTSn-LANE-FTS/1 $
#9759
0!
#9799
1!
b11010111000000001 %
0&
sTSn-DATA/2 $
#9839
0!
#9879
1!
b10011001101000 %
sTSn-ID0/3 $
#9919
0!
#9959
1!
b1001010001001010 %
sTSn-ID1/4 $
#9999
0!
#10039
1!
sTSn-ID2/5 $
#10079
0!
#10119
1!
sTSn-ID3/6 $
#10159
0!
#10199
1!
sTSn-ID4/7 $
#10239
0!
#10279
1!
13
0.
sIDLE/0 $
b1110011 1
07
b11011000 +
b1010 /
0:
18
1@
b11 6
#10319
0!
#10359
1!
b11011000110111100 %
1&
sTSn-LANE-FTS/1 $
#10399
0!
#10439
1!
b1110011111110111 %
0&
sTSn-DATA/2 $
#10479
0!
#10519
1!
b10010010011001 %
sTSn-ID0/3 $
#10559
0!
#10599
1!
b1000101001000101 %
sTSn-ID1/4 $
#10639
0!
#10679
1!
sTSn-ID2/5 $
#10719
0!
#10760
1!
sTSn-ID3/6 $
#10800
0!
#10840
1!
sTSn-ID4/7 $
#10880
0!
#10920
1!
03
1=
1.
sIDLE/0 $
b10010011 1
17
b10101 +
14
0>
b0 /
08
15
1<
0*
b10 6
#10960
0!
#11000
1!
b111110111110111100 %
1&
sTSn-LANE-FTS/1 $
#11040
0!
#11080
1!
b10010011000000000 %
0&
sTSn-DATA/2 $
#11120
0!
#11160
1!
b1110001010110 %
sTSn-ID0/3 $
#11200
0!
#11240
1!
b1000101001000101 %
sTSn-ID1/4 $
#11280
0!
#11320
1!
sTSn-ID2/5 $
#11360
0!
#11400
1!
sTSn-ID3/6 $
#11440
0!
#11480
1!
sTSn-ID4/7 $
#11520
0!
#11560
1!
13
0=
0.
0;
sIDLE/0 $
b11100100 1
07
b10 +
1>
b1011 /
0<
1*
b110 6
#11600
0!
#11640
1!
b10110111100 %
1&
sTSn-LANE-FTS/1 $
#11680
0!
#11720
1!
b11100100111110111 %
0&
sTSn-DATA/2 $
#11760
0!
#11800
1!
b10000000110111 %
sTSn-ID0/3 $
#11840
0!
#11880
1!
b1000101001000101 %
sTSn-ID1/4 $
#11920
0!
#11960
1!
sTSn-ID2/5 $
#12000
0!
#12040
1!
sTSn-ID3/6 $
#12080
0!
#12120
1!
sTSn-ID4/7 $
#12160
0!
#12200
1!
1;
sIDLE/0 $
b11110000 1
b111010 +
0>
b11101 /
1:
18
05
1<
0*
b11 6
#12240
0!
#12280
1!
b111110111110111100 %
1&
sTSn-LANE-FTS/1 $
#12320
0!
#12360
1!
b11110000111110111 %
0&
sTSn-DATA/2 $
#12400
0!
#12440
1!
b111010011011 %
sTSn-ID0/3 $
#12480
0!
#12520
1!
b1000101001000101 %
sTSn-ID1/4 $
#12560
0!
#12600
1!
sTSn-ID2/5 $
#12640
0!
#12680
1!
sTSn-ID3/6 $
#12720
0!
#12760
1!
sTSn-ID4/7 $
#12800
0!
#12840
1!
03
0;
sIDLE/0 $
b10110001 1
b10100001 +
04
b100 /
0:
0<
1*
0@
b1 6
#12880
0!
#12920
1!
b10100001110111100 %
1&
sTSn-LANE-FTS/1 $
#12960
0!
#13000
1!
b10110001111110111 %
0&
sTSn-DATA/2 $
#13040
0!
#13080
1!
b10001000 %
sTSn-ID0/3 $
#13120
0!
#13160
1!
b1001010001001010 %
sTSn-ID1/4 $
#13200
0!
#13240
1!
sTSn-ID2/5 $
#13280
0!
#13320
1!
sTSn-ID3/6 $
#13360
0!
#13400
1!
sTSn-ID4/7 $
#13440
0!
#13480
1!
13
sIDLE/0 $
b100111 1
17
b111 +
1>
b10111 /
08
1<
0*
b100 6
#13520
0!
#13560
1!
b111110111110111100 %
1&
sTSn-LANE-FTS/1 $
#13600
0!
#13640
1!
b100111111110111 %
0&
sTSn-DATA/2 $
#13680
0!
#13720
1!
b10100001100001 %
sTSn-ID0/3 $
#13760
0!
#13800
1!
b1001010001001010 %
sTSn-ID1/4 $
#13840
0!
#13880
1!
sTSn-ID2/5 $
#13920
0!
#13960
1!
sTSn-ID3/6 $
#14000
0!
#14040
1!
sTSn-ID4/7 $
#14080
0!
#14120
1!
03
1=
sIDLE/0 $
b1010000 1
b110110 +
14
0>
b0 /
15
0<
1@
b101 6
#14160
0!
#14200
1!
b111110111110111100 %
1&
sTSn-LANE-FTS/1 $
#14240
0!
#14280
1!
b1010000111110111 %
0&
sTSn-DATA/2 $
#14320
0!
#14360
1!
b1000001101110 %
sTSn-ID0/3 $
#14400
0!
#14440
1!
b1000101001000101 %
sTSn-ID1/4 $
#14480
0!
#14520
1!
sTSn-ID2/5 $
#14560
0!
#14600
1!
sTSn-ID3/6 $
#14640
0!
#14680
1!
sTSn-ID4/7 $
#14720
0!
#14760
1!
1;
sIDLE/0 $
b100100 1
b1110100 +
04
b11000 /
1:
1<
1*
b110 6
#14800
0!
#14840
1!
b1110100110111100 %
1&
sTSn-LANE-FTS/1 $
#14880
0!
#14920
1!
b100100111110111 %
0&
sTSn-DATA/2 $
#14960
0!
#15000
1!
b1111001110100 %
sTSn-ID0/3 $
#15040
0!
#15080
1!
b1000101001000101 %
sTSn-ID1/4 $
#15120
0!
#15160
1!
sTSn-ID2/5 $
#15200
0!
#15240
1!
sTSn-ID3/6 $
#15280
0!
#15320
1!
sTSn-ID4/7 $
#15360
0!
#15400
1!
13
0=
1.
0;
sIDLE/0 $
b10110001 1
b1000000 +
1>
0:
0*
#15440
0!
#15480
1!
b111110111110111100 %
1&
sTSn-LANE-FTS/1 $
#15520
0!
#15560
1!
b10110001000011000 %
0&
sTSn-DATA/2 $
#15600
0!
#15640
1!
b10100001110101 %
sTSn-ID0/3 $
#15680
0!
#15720
1!
b1000101001000101 %
sTSn-ID1/4 $
#15760
0!
#15800
1!
sTSn-ID2/5 $
#15840
0!
#15880
1!
sTSn-ID3/6 $
#15920
0!
#15960
1!
sTSn-ID4/7 $
#16000
0!
#16040
1!
sIDLE/0 $
b11111001 1
b1011100 +
0>
b10 /
1:
18
1*
0@
b111 6
#16080
0!
#16120
1!
b1011100110111100 %
1&
sTSn-LANE-FTS/1 $
#16160
0!
#16200
1!
b11111001000000010 %
0&
sTSn-DATA/2 $
#16240
0!
#16280
1!
b101011111101 %
sTSn-ID0/3 $
#16320
0!
#16360
1!
b1001010001001010 %
sTSn-ID1/4 $
#16400
0!
#16440
1!
sTSn-ID2/5 $
#16480
0!
#16520
1!
sTSn-ID3/6 $
#16560
0!
#16600
1!
sTSn-ID4/7 $
#16640
0!
#16680
1!
1=
0.
1;
sIDLE/0 $
b1000 1
07
b10011000 +
1>
b11101 /
08
05
0*
1@
b1 6
#16720
0!
#16760
1!
b111110111110111100 %
1&
sTSn-LANE-FTS/1 $
#16800
0!
#16840
1!
b1000111110111 %
0&
sTSn-DATA/2 $
#16880
0!
#16920
1!
b11111000001001 %
sTSn-ID0/3 $
#16960
0!
#17000
1!
b1000101001000101 %
sTSn-ID1/4 $
#17040
0!
#17080
1!
sTSn-ID2/5 $
#17120
0!
#17160
1!
sTSn-ID3/6 $
#17200
0!
#17240
1!
sTSn-ID4/7 $
#17280
0!
#17320
1!
03
0=
1.
0;
sIDLE/0 $
b10110100 1
b1110001 +
14
0>
b11001 /
0:
18
0<
b10 6
#17360
0!
#17400
1!
b111110111110111100 %
1&
sTSn-LANE-FTS/1 $
#17440
0!
#17480
1!
b10110100000011001 %
0&
sTSn-DATA/2 $
#17520
0!
#17560
1!
b10010010 %
sTSn-ID0/3 $
#17600
0!
#17640
1!
b1000101001000101 %
sTSn-ID1/4 $
#17680
0!
#17720
1!
sTSn-ID2/5 $
#17760
0!
#17800
1!
sTSn-ID3/6 $
#17840
0!
#17880
1!
sTSn-ID4/7 $
#17920
0!
#17960
1!
13
1=
1;
sIDLE/0 $
b1101 1
b10010111 +
04
1>
b11111 /
1:
08
15
1*
b11 6
#18000
0!
#18040
1!
b10010111110111100 %
1&
sTSn-LANE-FTS/1 $
#18080
0!
#18120
1!
b1101000011111 %
0&
sTSn-DATA/2 $
#18160
0!
#18200
1!
b11011000011101 %
sTSn-ID0/3 $
#18240
0!
#18280
1!
b1000101001000101 %
sTSn-ID1/4 $
#18320
0!
#18360
1!
sTSn-ID2/5 $
#18400
0!
#18440
1!
sTSn-ID3/6 $
#18480
0!
#18520
1!
sTSn-ID4/7 $
#18560
0!
#18600
1!
03
sIDLE/0 $
b1010010 1
b1111001 +
0>
b1000 /
0:
18
05
b100 6
#18640
0!
#18680
1!
b1111001110111100 %
1&
sTSn-LANE-FTS/1 $
#18720
0!
#18760
1!
b1010010000001000 %
0&
sTSn-DATA/2 $
#18800
0!
#18840
1!
b1010010100000 %
sTSn-ID0/3 $
#18880
0!
#18920
1!
b1000101001000101 %
sTSn-ID1/4 $
#18960
0!
#19000
1!
sTSn-ID2/5 $
#19040
0!
#19080
1!
sTSn-ID3/6 $
#19120
0!
#19160
1!
sTSn-ID4/7 $
#19200
0!
#19240
1!
13
0.
sIDLE/0 $
b10111011 1
b100101 +
14
b11100 /
08
0*
0@
b1 6
#19280
0!
#19320
1!
b111110111110111100 %
1&
sTSn-LANE-FTS/1 $
#19360
0!
#19400
1!
b10111011111110111 %
0&
sTSn-DATA/2 $
#19440
0!
#19480
1!
b1010000001011 %
sTSn-ID0/3 $
#19520
0!
#19560
1!
b1001010001001010 %
sTSn-ID1/4 $
#19600
0!
#19640
1!
sTSn-ID2/5 $
#19680
0!
#19720
1!
sTSn-ID3/6 $
#19760
0!
#19800
1!
sTSn-ID4/7 $
#19840
0!
#19880
1!
0=
1.
0;
sIDLE/0 $
b1011100 1
17
b11110100 +
04
1>
b1111 /
1:
18
15
b101 6
#19920
0!
#19960
1!
b111110111110111100 %
1&
sTSn-LANE-FTS/1 $
#20000
0!
#20040
1!
b1011100000001111 %
0&
sTSn-DATA/2 $
#20080
0!
#20120
1!
b10001011101101 %
sTSn-ID0/3 $
#20160
0!
#20200
1!
b1001010001001010 %
sTSn-ID1/4 $
#20240
0!
#20280
1!
sTSn-ID2/5 $
#20320
0!
#20360
1!
sTSn-ID3/6 $
#20400
0!
#20440
1!
sTSn-ID4/7 $
#20480
0!
#20520
1!
1;
sIDLE/0 $
b11111001 1
b1110 +
0>
b10101 /
0:
1<
1*
1@
b110 6
#20560
0!
#20600
1!
b1110110111100 %
1&
sTSn-LANE-FTS/1 $
#20640
0!
#20680
1!
b11111001000010101 %
0&
sTSn-DATA/2 $
#20720
0!
#20760
1!
b110011110101 %
sTSn-ID0/3 $
#20800
0!
#20840
1!
b1000101001000101 %
sTSn-ID1/4 $
#20880
0!
#20920
1!
sTSn-ID2/5 $
#20960
0!
#21000
1!
sTSn-ID3/6 $
#21040
0!
#21080
1!
sTSn-ID4/7 $
#21120
0!
#21160
1!
03
1=
0.
0;
sIDLE/0 $
b10100010 1
b100100 +
b1001 /
1:
05
0<
0*
b11 6
#21200
0!
#21240
1!
b111110111110111100 %
1&
sTSn-LANE-FTS/1 $
#21280
0!
#21320
1!
b10100010111110111 %
0&
sTSn-DATA/2 $
#21360
0!
#21400
1!
b1001011011000 %
sTSn-ID0/3 $
#21440
0!
#21480
1!
b1000101001000101 %
sTSn-ID1/4 $
#21520
0!
#21560
1!
sTSn-ID2/5 $
#21600
0!
#21640
1!
sTSn-ID3/6 $
#21680
0!
#21720
1!
sTSn-ID4/7 $
#21760
0!
#21800
1!
sIDLE/0 $
b10011010 1
b110110 +
14
1>
b1111 /
0:
1*
0@
b110 6
#21840
0!
#21880
1!
b110110110111100 %
1&
sTSn-LANE-FTS/1 $
#21920
0!
#21960
1!
b10011010111110111 %
0&
sTSn-DATA/2 $
#22000
0!
#22040
1!
b11000011110010 %
sTSn-ID0/3 $
#22080
0!
#22120
1!
b1001010001001010 %
sTSn-ID1/4 $
#22160
0!
#22200
1!
sTSn-ID2/5 $
#22240
0!
#22280
1!
sTSn-ID3/6 $
#22320
0!
#22360
1!
sTSn-ID4/7 $
#22400
0!
#22440
1!
1.
sIDLE/0 $
b11011101 1
b11101100 +
b11011 /
1:
08
15
b11 6
#22480
0!
#22520
1!
b11101100110111100 %
1&
sTSn-LANE-FTS/1 $
#22560
0!
#22600
1!
b11011101000011011 %
0&
sTSn-DATA/2 $
#22640
0!
#22680
1!
b11001001011110 %
sTSn-ID0/3 $
#22720
0!
#22760
1!
b1001010001001010 %
sTSn-ID1/4 $
#22800
0!
#22840
1!
sTSn-ID2/5 $
#22880
0!
#22920
1!
sTSn-ID3/6 $
#22960
0!
#23000
1!
sTSn-ID4/7 $
#23040
0!
#23080
1!
sIDLE/0 $
b1111100 1
b10011111 +
04
b11 /
0:
18
1<
0*
b0 6
#23120
0!
#23160
1!
b111110111110111100 %
1&
sTSn-LANE-FTS/1 $
#23200
0!
#23240
1!
b1111100000000011 %
0&
sTSn-DATA/2 $
#23280
0!
#23320
1!
b11100011000100 %
sTSn-ID0/3 $
#23360
0!
#23400
1!
b1001010001001010 %
sTSn-ID1/4 $
#23440
0!
#23480
1!
sTSn-ID2/5 $
#23520
0!
#23560
1!
sTSn-ID3/6 $
#23600
0!
#23640
1!
sTSn-ID4/7 $
#23680
0!
#23720
1!
sIDLE/0 $
b11 1
07
b11111111 +
14
b10110 /
1:
08
05
1@
b1 6
#23760
0!
#23800
1!
b111110111110111100 %
1&
sTSn-LANE-FTS/1 $
#23840
0!
#23880
1!
b11000010110 %
0&
sTSn-DATA/2 $
#23920
0!
#23960
1!
b11101000001010 %
sTSn-ID0/3 $
#24000
0!
#24040
1!
b1000101001000101 %
sTSn-ID1/4 $
#24080
0!
#24120
1!
sTSn-ID2/5 $
#24160
0!
#24200
1!
sTSn-ID3/6 $
#24240
0!
#24280
1!
sTSn-ID4/7 $
#24320
0!
#24360
1!
1;
sIDLE/0 $
b11100001 1
17
b11100000 +
b101 /
0<
b0 6
#24400
0!
#24440
1!
b111110111110111100 %
1&
sTSn-LANE-FTS/1 $
#24480
0!
#24520
1!
b11100001000000101 %
0&
sTSn-DATA/2 $
#24560
0!
#24600
1!
b11011001000010 %
sTSn-ID0/3 $
#24640
0!
#24680
1!
b1000101001000101 %
sTSn-ID1/4 $
#24720
0!
#24760
1!
sTSn-ID2/5 $
#24800
0!
#24840
1!
sTSn-ID3/6 $
#24880
0!
#24920
1!
sTSn-ID4/7 $
#24960
0!
#25000
1!
0.
sIDLE/0 $
b1011011 1
07
b10000010 +
0>
b1110 /
0:
18
15
0@
b10 6
#25040
0!
#25080
1!
b111110111110111100 %
1&
sTSn-LANE-FTS/1 $
#25120
0!
#25159
1!
b1011011111110111 %
0&
sTSn-DATA/2 $
#25199
0!
#25239
1!
b1010010010110 %
sTSn-ID0/3 $
#25279
0!
#25319
1!
b1001010001001010 %
sTSn-ID1/4 $
#25359
0!
#25399
1!
sTSn-ID2/5 $
#25439
0!
#25479
1!
sTSn-ID3/6 $
#25519
0!
#25559
1!
sTSn-ID4/7 $
#25599
0!
#25639
1!
13
0=
sIDLE/0 $
b10001000 1
b1000001 +
04
1>
b111 /
1:
1<
1*
b11 6
#25679
0!
#25719
1!
b1000001110111100 %
1&
sTSn-LANE-FTS/1 $
#25759
0!
#25799
1!
b10001000111110111 %
0&
sTSn-DATA/2 $
#25839
0!
#25879
1!
b10111010011101 %
sTSn-ID0/3 $
#25919
0!
#25959
1!
b1001010001001010 %
sTSn-ID1/4 $
#25999
0!
#26039
1!
sTSn-ID2/5 $
#26079
0!
#26119
1!
sTSn-ID3/6 $
#26159
0!
#26199
1!
sTSn-ID4/7 $
#26239
0!
#26279
1!
03
1=
0;
sIDLE/0 $
b1101011 1
b10100101 +
14
b10 /
08
0<
0*
1@
b100 6
#26319
0!
#26359
1!
b111110111110111100 %
1&
sTSn-LANE-FTS/1 $
#26399
0!
#26439
1!
b1101011111110111 %
0&
sTSn-DATA/2 $
#26479
0!
#26519
1!
b11001000100110 %
sTSn-ID0/3 $
#26559
0!
#26599
1!
b1000101001000101 %
sTSn-ID1/4 $
#26639
0!
#26679
1!
sTSn-ID2/5 $
#26719
0!
#26759
1!
sTSn-ID3/6 $
#26799
0!
#26839
1!
sTSn-ID4/7 $
#26879
0!
#26919
1!
0=
1.
sIDLE/0 $
b11110011 1
b111101 +
0>
b11 /
05
1<
0@
b11 6
#26959
0!
#26999
1!
b111110111110111100 %
1&
sTSn-LANE-FTS/1 $
#27039
0!
#27079
1!
b11110011000000011 %
0&
sTSn-DATA/2 $
#27119
0!
#27159
1!
b101000011010 %
sTSn-ID0/3 $
#27199
0!
#27239
1!
b1001010001001010 %
sTSn-ID1/4 $
#27279
0!
#27319
1!
sTSn-ID2/5 $
#27359
0!
#27399
1!
sTSn-ID3/6 $
#27439
0!
#27479
1!
sTSn-ID4/7 $
#27519
0!
#27559
1!
13
1;
sIDLE/0 $
b1011011 1
17
b1001111 +
b1110 /
0:
15
0<
1*
b101 6
#27599
0!
#27639
1!
b1001111110111100 %
1&
sTSn-LANE-FTS/1 $
#27679
0!
#27719
1!
b1011011000001110 %
0&
sTSn-DATA/2 $
#27759
0!
#27799
1!
b10001101111 %
sTSn-ID0/3 $
#27839
0!
#27879
1!
b1001010001001010 %
sTSn-ID1/4 $
#27919
0!
#27959
1!
sTSn-ID2/5 $
#27999
0!
#28039
1!
sTSn-ID3/6 $
#28079
0!
#28119
1!
sTSn-ID4/7 $
#28159
0!
#28199
1!
1=
0;
sIDLE/0 $
b11001111 1
07
b11000111 +
04
1>
b111 /
05
1<
b110 6
#28239
0!
#28279
1!
b11000111110111100 %
1&
sTSn-LANE-FTS/1 $
#28319
0!
#28359
1!
b11001111000000111 %
0&
sTSn-DATA/2 $
#28399
0!
#28439
1!
b11100000110001 %
sTSn-ID0/3 $
#28479
0!
#28519
1!
b1001010001001010 %
sTSn-ID1/4 $
#28559
0!
#28599
1!
sTSn-ID2/5 $
#28639
0!
#28679
1!
sTSn-ID3/6 $
#28719
0!
#28759
1!
sTSn-ID4/7 $
#28799
0!
#28839
1!
03
0=
0.
1;
sIDLE/0 $
b11101011 1
b11001011 +
b101 /
1:
18
15
0<
0*
#28879
0!
#28919
1!
b111110111110111100 %
1&
sTSn-LANE-FTS/1 $
#28959
0!
#28999
1!
b11101011111110111 %
0&
sTSn-DATA/2 $
#29039
0!
#29079
1!
b10011010110100 %
sTSn-ID0/3 $
#29119
0!
#29159
1!
b1001010001001010 %
sTSn-ID1/4 $
#29199
0!
#29239
1!
sTSn-ID2/5 $
#29279
0!
#29319
1!
sTSn-ID3/6 $
#29359
0!
#29399
1!
sTSn-ID4/7 $
#29439
0!
#29479
1!
13
1=
1.
0;
sIDLE/0 $
b10000011 1
b10011100 +
0>
b1101 /
0:
1@
b11 6
#29519
0!
#29559
1!
b111110111110111100 %
1&
sTSn-LANE-FTS/1 $
#29599
0!
#29639
1!
b10000011000001101 %
0&
sTSn-DATA/2 $
#29679
0!
#29719
1!
b1000010011101 %
sTSn-ID0/3 $
#29759
0!
#29799
1!
b1000101001000101 %
sTSn-ID1/4 $
#29839
0!
#29879
1!
sTSn-ID2/5 $
#29919
0!
#29959
1!
sTSn-ID3/6 $
#29999
0!
